0 1
1 1
2 5
3 1
4 5
5 10
6 187500
7 187500
8 187500
9 187500
10 187500
11 187500
12 187500
13 187500
14 1
15 10
16 10
17 10
18 2
19 3
20 1
21 1
22 1
23 1
24 1
25 1
26 1
27 1
28 3
29 3
30 6
31 6
32 3
33 3
34 3
35 200
36 3
37 3
38 3
39 1
40 2
41 6
42 16
43 40
44 200
45 7
46 12
47 95
48 60
49 60
50 23
51 23
52 1
53 1
54 50
55 50
56 80
57 80
58 160
59 160
60 100
61 100
62 320
63 320
64 200
65 200
66 640
67 640
68 400
69 400
70 1280
71 1280
72 800
73 800
74 10
75 12
76 1
77 5
78 2
79 1
80 1
81 1
82 1
83 15
84 15
85 1
86 12
87 12
88 6
89 6
90 5
91 3
92 3
93 5
94 5
95 11
96 11
97 20
98 20
99 25
100 25
101 40
102 40
103 48
104 48
105 54
106 54
107 65
108 65
109 70
110 70
111 25
112 25
113 14
114 400
115 13
116 13
117 13
118 13
119 11
120 11
121 12
122 12
123 9
124 9
125 6
126 6
127 88
128 88
129 66
130 66
131 44
132 44
133 120
134 120
135 90
136 90
137 60
138 60
139 152
140 152
141 114
142 114
143 76
144 76
145 180
146 180
147 135
148 135
149 90
150 90
151 200
152 200
153 150
154 150
155 100
156 100
157 220
158 220
159 165
160 165
161 110
162 110
163 264
164 264
165 198
166 198
167 132
168 132
169 288
170 288
171 216
172 216
173 144
174 144
175 288
176 288
177 216
178 216
179 144
180 144
181 288
182 288
183 216
184 216
185 144
186 144
187 144
188 144
189 175
190 175
191 150
192 150
193 125
194 125
195 1
196 1
197 20
198 20
199 1
200 1
201 1
202 1
203 1
204 1
205 1
206 1
207 1
208 1
209 1
210 1
211 1
212 1
213 1
214 1
215 1
216 1
217 1
218 1
219 1
220 1
221 3
222 3
223 7
224 7
225 7
226 7
227 2
228 2
229 2
230 2
231 10
232 10
233 4
234 4
235 20
236 20
237 20
238 20
239 10
240 10
241 52
242 52
243 50
244 50
245 1
246 1
247 1
248 1
249 225
250 225
251 265
252 265
253 284
254 284
255 286
256 286
257 301
258 301
259 325
260 325
261 326
262 326
263 333
264 333
265 754
266 754
267 822
268 822
269 941
270 941
271 1
272 1
273 1
274 1
275 1
276 3
277 3
278 3
279 3
280 1
281 1
282 1
283 1
284 50
285 50
286 40
287 40
288 40
289 40
290 2
291 5
292 2
293 1
294 1
295 1
296 1
297 1
298 1
299 100
300 3
301 20
302 20
303 5
304 5
305 20
306 20
307 5
308 5
309 5
310 5
311 5
312 5
313 3
314 2
315 5
316 5
317 5
318 5
319 15
320 15
321 15
322 15
323 1
324 1
325 10
326 10
327 10
328 10
329 50
330 50
331 50
332 50
333 20
334 20
335 20
336 20
337 50
338 50
339 25
340 25
341 25
342 25
343 1
344 1
345 15
346 15
347 15
348 15
349 25
350 25
351 25
352 25
353 17
354 17
355 17
356 17
357 1
358 1
359 100
360 100
361 100
362 100
363 120
364 120
365 120
366 120
367 1
368 1
369 1
370 1
371 200
372 200
373 200
374 200
375 1
376 1
377 150
378 150
379 150
380 700
381 1
382 1
383 300
384 300
385 300
386 1700
387 1
388 1
389 500
390 500
391 500
392 2700
393 1
394 1
395 500
396 500
397 500
398 500
399 1
400 1
401 2
402 2
403 2
404 2
405 50
406 50
407 200
408 200
409 5
410 5
411 112
412 112
413 1400
414 1400
415 10
416 0
417 1
418 1
419 1
420 1
421 10
422 1
423 1
424 1
425 1
426 5
427 5
428 5
429 5
430 40
431 30
432 1
433 1
434 1
435 1
436 3
437 3
438 3
439 3
440 17
441 17
442 75
443 75
444 150
445 150
446 150
447 162
448 162
449 400
450 400
451 3200
452 3200
453 45
454 45
455 10
456 10
457 10
458 10
459 10
460 10
461 10
462 10
463 10
464 1
465 1
466 1
467 1
468 1
469 1
470 1
471 1
472 17
473 17
474 43
475 43
476 107
477 107
478 1100
479 1100
480 1
481 1
482 139
483 139
484 499
485 499
486 1299
487 1299
488 3199
489 3199
490 31999
491 31999
492 1
493 1
494 0
495 0
496 0
497 0
498 0
499 0
500 10
501 10
502 18
503 18
504 43
505 43
506 427
507 427
508 15
509 15
510 55
511 55
512 199
513 199
514 383
515 383
516 519
517 519
518 1279
519 1279
520 12799
521 12799
522 1
523 1
524 1
525 1
526 1
527 1
528 1
529 1
530 1
531 1
532 1
533 1
534 1
535 1
536 1
537 1
538 30
539 30
540 40
541 40
542 30
543 30
544 40
545 40
546 40
547 40
548 30
549 30
550 1
551 1
552 35
553 1
554 4
555 4
556 4
557 4
558 3
559 3
560 280
561 180
562 90
563 240
564 50
565 400
566 300
567 100
568 100
569 300
570 300
571 300
572 300
573 300
574 300
575 300
576 300
577 15
578 15
579 2
580 2
581 13
582 13
583 10
584 10
585 10
586 10
587 1
588 1
589 1
590 1
591 1
592 2
593 2
594 4
595 4
596 4
597 4
598 10
599 1
600 3
601 1
602 1
603 3
604 1
605 1
606 1
607 1
608 1
609 1
610 1
611 1
612 1
613 1
614 1
615 1
616 1
617 1
618 1
619 5
620 5
621 5
622 5
623 1
624 1
625 5
626 200
627 200
628 200
629 200
630 200
631 200
632 200
633 200
634 200
635 200
636 180
637 180
638 180
639 180
640 180
641 180
642 180
643 180
644 180
645 180
646 180
647 180
648 180
649 180
650 180
651 180
652 180
653 180
654 180
655 180
656 160
657 160
658 160
659 160
660 160
661 160
662 160
663 160
664 160
665 160
666 3
667 200
668 3
669 1
670 1
671 1
672 1
673 1
674 1
675 1
676 1
677 1
678 1
679 1
680 1
681 1
682 1
683 1
684 1
685 1
686 1
687 1
688 1
689 1
690 1
691 1
692 1
693 1
694 1
695 1
696 1
697 1
698 1
699 1
700 1
701 1
702 1
703 1
704 1
705 1
706 1
707 1
708 1
709 1
710 1
711 1
712 1
713 1
714 1
715 1
716 1
717 1
718 1
719 1
720 10
721 700
722 700
723 700
724 700
725 700
726 700
727 2
728 1
729 1
730 1
731 1
732 1
733 1
734 1
735 1
736 1
737 1
738 1
739 1
740 2
741 1
742 1
743 1
744 1
745 1
746 1
747 1
748 1
749 1
750 1
751 1
752 1
753 1
754 1
755 5
756 1
757 1
758 1
759 1
760 1
761 5
762 1
763 1
764 1
765 1
766 1
767 4
768 4
769 1
770 1
771 15
772 15
773 2025
774 2175
775 1
776 1
777 1
778 1
779 1
780 1
781 1
782 1
783 2
784 2
785 2
786 2
787 2
788 1
789 1
790 1
791 1
792 1
793 1
794 2
795 2
796 1
797 1
798 1
799 1
800 3
801 7
802 26
803 70
804 176
805 440
806 1
807 2
808 10
809 25
810 65
811 350
812 1
813 2
814 10
815 25
816 65
817 350
818 1
819 1
820 3
821 5
822 12
823 36
824 175
825 4
826 6
827 24
828 64
829 160
830 400
831 4
832 6
833 24
834 64
835 160
836 400
837 70
838 70
839 80
840 80
841 50
842 50
843 100
844 100
845 160
846 160
847 320
848 320
849 200
850 200
851 640
852 640
853 400
854 400
855 1280
856 1280
857 800
858 800
859 2560
860 2560
861 1600
862 1600
863 3
864 1
865 11
866 27
867 66
868 167
869 19
870 1
871 3
872 10
873 27
874 18
875 66
876 166
877 0
878 0
879 7
880 13
881 200
882 1
883 1
884 3
885 3
886 12
887 12
888 32
889 32
890 80
891 80
892 400
893 400
894 1
895 1
896 1
897 1
898 1
899 1
900 1
901 1
902 1
903 1
904 1
905 1
906 1
907 1
908 1
909 1
910 1
911 1
912 1
913 1
914 1
915 1
916 1
917 1
918 1
919 1
920 1
921 1
922 1
923 1
924 1
925 1
926 1
927 1
928 1
929 1
930 1
931 1
932 1
933 1
934 1
935 1
936 1
937 1
938 1
939 1
940 1
941 1
942 10
943 0
944 0
945 1
946 40
947 6
948 10
949 10
950 2000
951 2000
952 30
953 3
954 18
955 18
956 1
957 1
958 50
959 50
960 1
961 1
962 1
963 1
964 1
965 1
966 1
967 1
968 1
969 1
970 10
971 10
972 1
973 45
974 45
975 40
976 40
977 1
978 1
979 1
980 1
981 12
982 12
983 1
984 1
985 1
986 1
987 1
988 1
989 1
990 1
991 1
992 1
993 1
994 1
995 1
996 1
997 1
998 1
999 1
1000 1
1001 1
1002 1
1003 1
1004 1
1005 2
1006 2
1007 2
1008 2
1009 30
1010 30
1011 2
1012 2
1013 2
1014 2
1015 2
1016 2
1017 2
1018 2
1019 7
1020 7
1021 32
1022 32
1023 32
1024 32
1025 2
1026 2
1027 32
1028 32
1029 32
1030 32
1031 32
1032 32
1033 30
1034 30
1035 40
1036 40
1037 1
1038 1
1039 1
1040 1
1041 1
1042 1
1043 1
1044 1
1045 1
1046 1
1047 1
1048 1
1049 1
1050 160
1051 160
1052 450
1053 15
1054 15
1055 15
1056 15
1057 15
1058 15
1059 6
1060 6
1061 6
1062 6
1063 18
1064 18
1065 2500
1066 2500
1067 280
1068 280
1069 1000
1070 1000
1071 2600
1072 2600
1073 6400
1074 6400
1075 80
1076 80
1077 1920
1078 1920
1079 64000
1080 64000
1081 280
1082 280
1083 1000
1084 1000
1085 2600
1086 2600
1087 80
1088 80
1089 1920
1090 1920
1091 6400
1092 6400
1093 64000
1094 64000
1095 20
1096 20
1097 750
1098 750
1099 3900
1100 3900
1101 210
1102 210
1103 60
1104 60
1105 750
1106 750
1107 1440
1108 1440
1109 1950
1110 1950
1111 4800
1112 4800
1113 50000
1114 50000
1115 560
1116 560
1117 160
1118 160
1119 2000
1120 2000
1121 5200
1122 5200
1123 12800
1124 12800
1125 3840
1126 3840
1127 65000
1128 65000
1129 21
1130 21
1131 170
1132 170
1133 850
1134 850
1135 7800
1136 7800
1137 84
1138 84
1139 24
1140 24
1141 300
1142 300
1143 780
1144 780
1145 1920
1146 1920
1147 19200
1148 19200
1149 100000
1150 100000
1151 576
1152 576
1153 154
1154 154
1155 44
1156 44
1157 550
1158 550
1159 1430
1160 1430
1161 3520
1162 3520
1163 35200
1164 35200
1165 1056
1166 1056
1167 24
1168 24
1169 200
1170 200
1171 20
1172 20
1173 48
1174 48
1175 168
1176 168
1177 600
1178 600
1179 1152
1180 1152
1181 1560
1182 1560
1183 3840
1184 3840
1185 38400
1186 38400
1187 500000
1188 500000
1189 68
1190 68
1191 238
1192 238
1193 850
1194 850
1195 1632
1196 1632
1197 2210
1198 2210
1199 5440
1200 5440
1201 54400
1202 54400
1203 35
1204 35
1205 10
1206 10
1207 125
1208 125
1209 325
1210 325
1211 800
1212 800
1213 8000
1214 8000
1215 30000
1216 30000
1217 240
1218 240
1219 35
1220 35
1221 10
1222 10
1223 125
1224 125
1225 325
1226 325
1227 800
1228 800
1229 8000
1230 8000
1231 24000
1232 24000
1233 240
1234 240
1235 565
1236 565
1237 26
1238 26
1239 91
1240 91
1241 325
1242 325
1243 845
1244 845
1245 2080
1246 2080
1247 20800
1248 20800
1249 62400
1250 62400
1251 26
1252 26
1253 91
1254 91
1255 325
1256 325
1257 845
1258 845
1259 2080
1260 2080
1261 20800
1262 20800
1263 62400
1264 62400
1265 1
1266 1
1267 140
1268 140
1269 500
1270 500
1271 3200
1272 3200
1273 1300
1274 1300
1275 32000
1276 32000
1277 26
1278 26
1279 91
1280 91
1281 325
1282 325
1283 624
1284 624
1285 845
1286 845
1287 2080
1288 2080
1289 20800
1290 20800
1291 40
1292 40
1293 140
1294 140
1295 500
1296 500
1297 960
1298 960
1299 1300
1300 1300
1301 3200
1302 3200
1303 32000
1304 32000
1305 100000
1306 100000
1307 80
1308 80
1309 280
1310 280
1311 1000
1312 1000
1313 1920
1314 1920
1315 2600
1316 2600
1317 6400
1318 6400
1319 64000
1320 64000
1321 32
1322 32
1323 112
1324 112
1325 400
1326 400
1327 768
1328 768
1329 1040
1330 1040
1331 2560
1332 2560
1333 25600
1334 25600
1335 173
1336 173
1337 47
1338 47
1339 640
1340 640
1341 980
1342 980
1343 1660
1344 1660
1345 4120
1346 4120
1347 41500
1348 41500
1349 56
1350 56
1351 16
1352 16
1353 200
1354 200
1355 520
1356 520
1357 1280
1358 1280
1359 12800
1360 12800
1361 384
1362 384
1363 182
1364 182
1365 650
1366 650
1367 1248
1368 1248
1369 1690
1370 1690
1371 4160
1372 4160
1373 41600
1374 41600
1375 52
1376 52
1377 200000
1378 200000
1379 15
1380 15
1381 1500
1382 1500
1383 1500
1384 1500
1385 1500
1386 1500
1387 1500
1388 1500
1389 200
1390 200
1391 7000
1392 7000
1393 15500
1394 15500
1395 15500
1396 15500
1397 15500
1398 15500
1399 15500
1400 15500
1401 42500
1402 42500
1403 42500
1404 42500
1405 42500
1406 42500
1407 42500
1408 42500
1409 42500
1410 20
1411 1
1412 1
1413 1
1414 1
1415 1
1416 1
1417 1
1418 1
1419 1
1420 63
1421 63
1422 18
1423 18
1424 225
1425 225
1426 432
1427 432
1428 585
1429 585
1430 1440
1431 1440
1432 14400
1433 14400
1434 50000
1435 50000
1436 4
1437 4
1438 4
1439 4
1440 4
1441 4
1442 4
1443 4
1444 4
1445 4
1446 4
1447 4
1448 4
1449 4
1450 4
1451 4
1452 4
1453 4
1454 4
1455 4
1456 4
1457 4
1458 4
1459 1
1460 4
1461 4
1462 4
1463 4
1464 25
1465 11
1466 4
1467 1
1468 1
1469 0
1470 4
1471 4
1472 4
1473 4
1474 4
1475 4
1476 4
1477 4
1478 100
1479 100
1480 1
1481 10
1482 10
1483 10
1484 20
1485 10
1486 10
1487 20
1488 10
1489 10
1490 10
1491 1
1492 2
1493 1
1494 1
1495 6
1496 1
1497 0
1498 0
1499 0
1500 2
1501 2
1502 2
1503 5
1504 2
1505 1
1506 2
1507 1
1508 2
1509 1
1510 1
1511 4
1512 4
1513 320
1514 320
1515 160
1516 160
1517 80
1518 80
1519 40
1520 40
1521 20
1522 20
1523 20
1524 20
1525 1
1526 5
1527 1
1528 5
1529 1
1530 5
1531 1
1532 5
1533 1
1534 5
1535 1
1536 1
1537 1
1538 1
1539 3
1540 20
1541 20
1542 1
1543 1
1544 1
1545 1
1546 1
1547 1
1548 1
1549 8
1550 3
1551 3
1552 10
1553 10
1554 1
1555 1
1556 1
1557 1
1558 1
1559 1
1560 1
1561 1
1562 1
1563 1
1564 1
1565 1
1566 1
1567 1
1568 1
1569 1
1570 1
1571 1
1572 1
1573 2
1574 2
1575 350
1576 350
1577 5
1578 5
1579 2
1580 6
1581 5
1582 10
1583 2
1584 1
1585 15
1586 1
1587 1
1588 1
1589 1
1590 1
1591 1
1592 5
1593 5
1594 200
1595 5
1596 5
1597 5
1598 5
1599 5
1600 5
1601 2000
1602 2000
1603 1000
1604 1000
1605 500
1606 500
1607 250
1608 250
1609 100
1610 100
1611 150
1612 150
1613 500
1614 500
1615 10000
1616 10000
1617 2525
1618 2525
1619 2000
1620 2000
1621 1000
1622 1000
1623 500
1624 500
1625 20
1626 20
1627 30
1628 30
1629 40
1630 40
1631 10000
1632 10000
1633 1
1634 1
1635 3000
1636 3000
1637 900
1638 900
1639 1275
1640 1275
1641 2025
1642 2025
1643 3525
1644 3525
1645 17625
1646 17625
1647 1
1648 1
1649 1
1650 1
1651 1
1652 1
1653 1
1654 450
1655 450
1656 1050
1657 1050
1658 1425
1659 1425
1660 2175
1661 2175
1662 3675
1663 3675
1664 18375
1665 18375
1666 1
1667 1
1668 1
1669 1
1670 1
1671 1
1672 1
1673 350
1674 350
1675 900
1676 900
1677 1275
1678 1275
1679 2725
1680 2725
1681 3525
1682 3525
1683 17625
1684 17625
1685 1
1686 1
1687 1
1688 1
1689 1
1690 1
1691 1
1692 350
1693 350
1694 900
1695 900
1696 1755
1697 1755
1698 2725
1699 2725
1700 4525
1701 4525
1702 17625
1703 17625
1704 17625
1705 17625
1706 17625
1707 17625
1708 17625
1709 17625
1710 17625
1711 17625
1712 4000
1713 13500
1714 200
1715 200
1716 200
1717 200
1718 300
1719 300
1720 200
1721 200
1722 200
1723 200
1724 200
1725 3000
1726 3000
1727 1000
1728 1000
1729 1750
1730 1750
1731 4500
1732 4500
1733 1
1734 1
1735 1
1736 1
1737 1
1738 1
1739 1
1740 1
1741 1
1742 1
1743 1
1744 1
1745 5000
1746 5000
1747 80
1748 80
1749 60
1750 60
1751 40
1752 40
1753 20
1754 20
1755 30
1756 1
1757 2
1758 2
1759 2
1760 2
1761 2
1762 2
1763 5
1764 5
1765 5
1766 5
1767 5
1768 5
1769 5
1770 5
1771 5
1772 5
1773 5
1774 5
1775 3
1776 3
1777 10
1778 10
1779 5
1780 5
1781 2
1782 2
1783 2
1784 2
1785 2
1786 2
1787 1
1788 1
1789 3
1790 3
1791 2
1792 2
1793 1
1794 20
1795 20
1796 1
1797 1
1798 1
1799 1
1800 1
1801 1
1802 1
1803 1
1804 1
1805 1
1806 1
1807 1
1808 1
1809 1
1810 1
1811 1
1812 1
1813 1
1814 1
1815 1
1816 1
1817 1
1818 1
1819 1
1820 1
1821 1
1822 1
1823 30
1824 30
1825 27
1826 27
1827 24
1828 24
1829 18
1830 18
1831 15
1832 15
1833 40
1834 40
1835 40
1836 40
1837 20
1838 20
1839 1
1840 1
1841 1
1842 1
1843 1
1844 40
1845 40
1846 1
1847 10
1848 1
1849 2
1850 1
1851 1
1852 1
1853 1
1854 5
1855 1
1856 1
1857 10
1858 10
1859 2
1860 2
1861 5
1862 5
1863 4
1864 4
1865 10
1866 10
1867 1
1868 1
1869 3
1870 3
1871 3
1872 3
1873 5
1874 5
1875 5
1876 5
1877 7
1878 7
1879 7
1880 7
1881 9
1882 9
1883 20
1884 20
1885 20
1886 20
1887 10
1888 10
1889 20
1890 20
1891 50
1892 50
1893 30
1894 30
1895 10
1896 10
1897 1000
1898 2000
1899 50
1900 50
1901 30
1902 30
1903 1
1904 1
1905 2
1906 2
1907 2
1908 2
1909 2
1910 2
1911 2
1912 2
1913 2
1914 2
1915 3
1916 3
1917 2
1918 2
1919 2
1920 2
1921 4
1922 4
1923 4
1924 4
1925 2
1926 2
1927 6
1928 6
1929 6
1930 6
1931 1
1932 1
1933 10
1934 10
1935 1
1936 1
1937 1
1938 1
1939 1
1940 1
1941 30
1942 1
1943 1
1944 4
1945 4
1946 2
1947 2
1948 2
1949 2
1950 2
1951 3
1952 3
1953 1
1954 1
1955 1
1956 1
1957 3
1958 3
1959 30
1960 30
1961 10
1962 10
1963 2
1964 2
1965 1
1966 1
1967 1
1968 1
1969 1
1970 1
1971 3
1972 3
1973 10
1974 10
1975 2
1976 2
1977 2
1978 10
1979 10
1980 2
1981 2
1982 4
1983 4
1984 1
1985 4
1986 4
1987 1
1988 1
1989 1
1990 1
1991 1
1992 1
1993 1
1994 1
1995 10
1996 10
1997 4
1998 4
1999 4
2000 4
2001 10
2002 10
2003 20
2004 20
2005 1
2006 1
2007 230
2008 230
2009 10
2010 10
2011 20
2012 20
2013 1
2014 1
2015 5
2016 5
2017 5
2018 5
2019 5
2020 5
2021 5
2022 5
2023 2
2024 2
2025 2
2026 1
2027 1
2028 30
2029 30
2030 30
2031 30
2032 30
2033 30
2034 30
2035 30
2036 30
2037 30
2038 30
2039 30
2040 30
2041 30
2042 2
2043 2
2044 2
2045 2
2046 2
2047 2
2048 30
2049 30
2050 2
2051 2
2052 2
2053 2
2054 30
2055 30
2056 2
2057 2
2058 2
2059 2
2060 2
2061 2
2062 2
2063 2
2064 30
2065 30
2066 2
2067 2
2068 2
2069 2
2070 2
2071 2
2072 2
2073 2
2074 30
2075 30
2076 2
2077 2
2078 2
2079 2
2080 30
2081 30
2082 2
2083 2
2084 30
2085 30
2086 2
2087 2
2088 2
2089 2
2090 2
2091 2
2092 30
2093 30
2094 2
2095 2
2096 2
2097 2
2098 2
2099 2
2100 2
2101 2
2102 2
2103 2
2104 2
2105 2
2106 2
2107 2
2108 2
2109 2
2110 2
2111 2
2112 2
2113 2
2114 2
2115 2
2116 1
2117 1
2118 1
2119 1
2120 2
2121 2
2122 1
2123 1
2124 2
2125 2
2126 4
2127 4
2128 2
2129 2
2130 2
2131 2
2132 1
2133 1
2134 1
2135 1
2136 1
2137 1
2138 1
2139 1
2140 4
2141 4
2142 4
2143 4
2144 1
2145 1
2146 1
2147 1
2148 150
2149 150
2150 2
2151 2
2152 2
2153 2
2154 2
2155 2
2156 2
2157 2
2158 2
2159 2
2160 2
2161 2
2162 2
2163 2
2164 10
2165 10
2166 10
2167 2
2168 2
2169 2
2170 2
2171 2
2172 2
2173 2
2174 2
2175 1
2176 1
2177 2
2178 2
2179 1
2180 1
2181 1
2182 1
2183 1
2184 1
2185 2
2186 2
2187 2
2188 2
2189 1
2190 1
2191 2
2192 2
2193 1
2194 1
2195 2
2196 2
2197 2
2198 2
2199 1
2200 1
2201 2
2202 2
2203 1
2204 1
2205 2
2206 2
2207 1
2208 1
2209 2
2210 2
2211 1
2212 1
2213 2
2214 2
2215 1
2216 1
2217 2
2218 2
2219 120
2220 120
2221 120
2222 120
2223 120
2224 120
2225 120
2226 120
2227 120
2228 120
2229 160
2230 160
2231 160
2232 160
2233 150
2234 150
2235 150
2236 150
2237 85
2238 85
2239 85
2240 85
2241 85
2242 85
2243 85
2244 85
2245 2
2246 2
2247 1
2248 1
2249 2
2250 2
2251 1
2252 1
2253 1
2254 1
2255 2
2256 2
2257 1
2258 1
2259 2
2260 2
2261 1
2262 1
2263 1
2264 1
2265 1
2266 1
2267 1
2268 1
2269 1
2270 1
2271 1
2272 1
2273 1
2274 1
2275 1
2276 1
2277 2
2278 2
2279 1
2280 1
2281 2
2282 2
2283 4
2284 4
2285 10
2286 10
2287 25
2288 25
2289 40
2290 40
2291 20
2292 20
2293 50
2294 50
2295 25
2296 25
2297 60
2298 60
2299 30
2300 30
2301 100
2302 100
2303 50
2304 50
2305 1
2306 1
2307 4
2308 4
2309 12
2310 12
2311 1
2312 1
2313 3
2314 3
2315 4
2316 4
2317 16
2318 16
2319 8
2320 8
2321 6
2322 6
2323 30
2324 30
2325 12
2326 12
2327 15
2328 15
2329 1
2330 1
2331 8
2332 8
2333 6
2334 6
2335 15
2336 15
2337 10
2338 10
2339 5
2340 5
2341 16
2342 16
2343 35
2344 35
2345 1
2346 1
2347 1
2348 1
2349 8
2350 8
2351 28
2352 28
2353 100
2354 100
2355 150
2356 150
2357 300
2358 300
2359 300
2360 300
2361 640
2362 640
2363 5000
2364 5000
2365 300
2366 110000
2367 110000
2368 500000
2369 500000
2370 150
2371 150
2372 1
2373 1
2374 1
2375 1
2376 1
2377 1
2378 1
2379 1
2380 1
2381 1
2382 1
2383 1
2384 1
2385 1
2386 1
2387 1
2388 1
2389 1
2390 1
2391 20
2392 20
2393 300
2394 120
2395 120
2396 5
2397 40
2398 30
2399 100
2400 100
2401 100
2402 50
2403 1
2404 1
2405 65
2406 1
2407 1
2408 1
2409 1
2410 3
2411 1
2412 100
2413 100
2414 100
2415 80000
2416 80000
2417 80000
2418 1
2419 1
2420 1
2421 1
2422 1
2423 1
2424 5
2425 1
2426 1
2427 1
2428 15
2429 400
2430 110
2431 110
2432 150
2433 150
2434 190
2435 600
2436 225
2437 1000
2438 250
2439 250
2440 275
2441 1000
2442 330
2443 1000
2444 360
2445 6000
2446 360
2447 360
2448 360
2449 360
2450 200
2451 200
2452 330
2453 330
2454 264
2455 264
2456 198
2457 198
2458 132
2459 132
2460 100
2461 100
2462 100
2463 100
2464 100
2465 100
2466 100
2467 100
2468 100
2469 100
2470 100
2471 100
2472 100
2473 100
2474 100
2475 100
2476 100
2477 100
2478 1
2479 1
2480 1
2481 68
2482 68
2483 68
2484 68
2485 1
2486 1
2487 3000
2488 3000
2489 3600
2490 3600
2491 4320
2492 4320
2493 4320
2494 4320
2495 5180
2496 5180
2497 6220
2498 6220
2499 9360
2500 9360
2501 11230
2502 11230
2503 13480
2504 13480
2505 10000
2506 10000
2507 15000
2508 15000
2509 20000
2510 20000
2511 4
2512 1
2513 6
2514 5
2515 5
2516 10
2517 10
2518 1
2519 1
2520 100
2521 100
2522 100
2523 100
2524 100
2525 100
2526 100
2527 100
2528 1
2529 1
2530 1
2531 1
2532 3
2533 10
2534 3
2535 10
2536 3
2537 10
2538 3
2539 10
2540 3
2541 10
2542 1
2543 1
2544 1
2545 1
2546 1
2547 1
2548 1
2549 1
2550 900
2551 900
2552 4000
2553 1275
2554 1275
2555 1275
2556 1275
2557 1275
2558 1275
2559 1275
2560 1275
2561 1275
2562 1275
2563 1275
2564 1275
2565 1275
2566 1275
2567 1275
2568 2025
2569 2025
2570 3525
2571 3525
2572 17625
2573 17625
2574 50
2575 100
2576 2
2577 200
2578 200
2579 200
2580 200
2581 450
2582 450
2583 3840
2584 3840
2585 1920
2586 1920
2587 1056
2588 1056
2589 1632
2590 1632
2591 3840
2592 3840
2593 1920
2594 1920
2595 1056
2596 1056
2597 1632
2598 1632
2599 12800
2600 12800
2601 6400
2602 6400
2603 5440
2604 5440
2605 3520
2606 3520
2607 12800
2608 12800
2609 6400
2610 6400
2611 5440
2612 5440
2613 3520
2614 3520
2615 65000
2616 65000
2617 64000
2618 64000
2619 35200
2620 35200
2621 54400
2622 54400
2623 65000
2624 65000
2625 64000
2626 64000
2627 35200
2628 35200
2629 54400
2630 54400
2631 40
2632 40
2633 80
2634 80
2635 80
2636 80
2637 80
2638 80
2639 200
2640 200
2641 200
2642 200
2643 200
2644 200
2645 40
2646 40
2647 40
2648 40
2649 40
2650 40
2651 180
2652 180
2653 65000
2654 65000
2655 64000
2656 64000
2657 35200
2658 35200
2659 54400
2660 54400
2661 65000
2662 65000
2663 64000
2664 64000
2665 35200
2666 35200
2667 54400
2668 54400
2669 65000
2670 65000
2671 64000
2672 64000
2673 35200
2674 35200
2675 54400
2676 54400
2677 1
2678 1
2679 1
2680 1
2681 1
2682 1
2683 1
2684 1
2685 1
2686 1
2687 1
2688 1
2689 1
2690 1
2691 1
2692 1
2693 1
2694 1
2695 1
2696 1
2697 1
2698 1
2699 1
2700 1
2701 1
2702 1
2703 1
2704 1
2705 1
2706 1
2707 1
2708 1
2709 1
2710 1
2711 1
2712 1
2713 1
2714 50
2715 50
2716 1
2717 50
2718 50
2719 1
2720 50
2721 50
2722 1
2723 1
2724 50
2725 1
2726 50
2727 1
2728 50
2729 1
2730 50
2731 1
2732 50
2733 1
2734 50
2735 1
2736 50
2737 1
2738 50
2739 1
2740 50
2741 1
2742 50
2743 1
2744 50
2745 1
2746 50
2747 1
2748 50
2749 1
2750 1
2751 1
2752 1
2753 1
2754 1
2755 1
2756 1
2757 1
2758 1
2759 1
2760 1
2761 1
2762 1
2763 1
2764 1
2765 1
2766 1
2767 1
2768 1
2769 1
2770 1
2771 1
2772 1
2773 1
2774 1
2775 50
2776 1
2777 50
2778 1
2779 50
2780 1
2781 50
2782 1
2783 1
2784 50
2785 1
2786 1
2787 50
2788 1
2789 50
2790 1
2791 50
2792 1
2793 1
2794 1
2795 100
2796 1
2797 1
2798 100
2799 1
2800 100
2801 1
2802 50
2803 1
2804 50
2805 1
2806 50
2807 1
2808 50
2809 1
2810 50
2811 1
2812 50
2813 1
2814 50
2815 1
2816 50
2817 1
2818 50
2819 1
2820 50
2821 1
2822 50
2823 1
2824 50
2825 1
2826 50
2827 1
2828 50
2829 1
2830 50
2831 1
2832 1
2833 1
2834 1
2835 1
2836 1
2837 1
2838 1
2839 1
2840 1
2841 1
2842 1
2843 1
2844 1
2845 1
2846 1
2847 1
2848 1
2849 1
2850 1
2851 1
2852 1
2853 1
2854 1
2855 1
2856 1
2857 1
2858 1
2859 1
2860 1
2861 3
2862 4
2863 4
2864 1
2865 1
2866 25
2867 1
2868 1
2869 1
2870 1
2871 1
2872 1
2873 1
2874 1
2875 1
2876 85
2877 85
2878 130
2879 130
2880 1
2881 1
2882 10
2883 500
2884 1
2885 1
2886 10
2887 1
2888 1
2889 1
2890 20
2891 20
2892 5
2893 8
2894 500
2895 500
2896 500
2897 500
2898 500
2899 500
2900 500
2901 500
2902 500
2903 500
2904 500
2905 500
2906 500
2907 500
2908 500
2909 500
2910 500
2911 500
2912 500
2913 500
2914 500
2915 500
2916 500
2917 500
2918 500
2919 500
2920 500
2921 500
2922 500
2923 500
2924 500
2925 500
2926 500
2927 500
2928 500
2929 500
2930 500
2931 500
2932 500
2933 500
2934 500
2935 500
2936 500
2937 500
2938 500
2939 500
2940 500
2941 500
2942 500
2943 500
2944 300
2945 2
2946 300
2947 300
2948 300
2949 300
2950 300
2951 300
2952 300
2953 6
2954 6
2955 5
2956 5
2957 5
2958 5
2959 1
2960 1
2961 175
2962 175
2963 250
2964 4
2965 4
2966 1
2967 1
2968 1
2969 1
2970 1
2971 1
2972 1
2973 1
2974 1
2975 1
2976 10
2977 10
2978 1
2979 1
2980 1
2981 1
2982 1
2983 1
2984 1
2985 1
2986 1
2987 1
2988 1
2989 1
2990 1
2991 1
2992 1
2993 1
2994 1
2995 1
2996 1
2997 89
2998 1241
2999 1241
3000 1415
3001 1415
3002 48
3003 48
3004 59
3005 59
3006 60
3007 60
3008 146
3009 146
3010 110
3011 110
3012 72
3013 72
3014 36
3015 36
3016 300
3017 300
3018 230
3019 230
3020 160
3021 160
3022 90
3023 90
3024 300
3025 900
3026 240
3027 240
3028 180
3029 180
3030 120
3031 120
3032 200
3033 200
3034 150
3035 150
3036 100
3037 100
3038 50
3039 50
3040 300
3041 7000
3042 250
3043 250
3044 200
3045 200
3046 150
3047 150
3048 89
3049 1
3050 1
3051 1
3052 1
3053 17000
3054 45000
3055 17000
3056 45000
3057 1
3058 1
3059 1
3060 1
3061 1
3062 1
3063 1
3064 1
3065 1
3066 1
3067 1
3068 1
3069 1
3070 1
3071 1
3072 1
3073 1
3074 1
3075 1
3076 1
3077 1
3078 1
3079 1
3080 1
3081 1
3082 1
3083 1
3084 1
3085 1
3086 1
3087 1
3088 1
3089 1
3090 1
3091 1
3092 1
3093 1
3094 18
3095 15
3096 50
3097 175
3098 360
3099 475
3100 1200
3101 12000
3102 1
3103 1
3104 1
3105 5000
3106 12
3107 30
3108 30
3109 1
3110 1
3111 1
3112 1
3113 1
3114 1
3115 15
3116 50
3117 175
3118 360
3119 475
3120 1200
3121 12000
3122 56000
3123 1
3124 1
3125 1
3126 1
3127 1
3128 1
3129 1
3130 1
3131 1
3132 1
3133 1
3134 56000
3135 1
3136 1
3137 1
3138 1
3139 1
3140 250000
3141 250000
3142 200
3143 200
3144 250
3145 250
3146 250
3147 250
3148 1
3149 1
3150 10
3151 10
3152 15
3153 15
3154 15
3155 15
3156 15
3157 5
3158 5
3159 40
3160 40
3161 5
3162 2
3163 2
3164 30
3165 30
3166 1
3167 10
3168 1
3169 1
3170 26
3171 91
3172 325
3173 845
3174 2080
3175 20800
3176 62400
3177 2
3178 2
3179 1
3180 1
3181 1
3182 1
3183 1
3184 1
3185 1
3186 1
3187 0
3188 60
3189 60
3190 80
3191 80
3192 280
3193 280
3194 1000
3195 1000
3196 1920
3197 1920
3198 2600
3199 2600
3200 6400
3201 6400
3202 64000
3203 64000
3204 250000
3205 250000
3206 1
3207 1
3208 10
3209 1
3210 1
3211 10
3212 10
3213 4
3214 5
3215 5
3216 1
3217 1
3218 1
3219 1
3220 1
3221 1
3222 1
3223 1
3224 10
3225 10
3226 20
3227 20
3228 4
3229 4
3230 1
3231 1
3232 1
3233 1
3234 1
3235 1
3236 1
3237 1
3238 1
3239 1
3240 1
3241 1
3242 1
3243 1
3244 1
3245 1
3246 1
3247 1
3248 1
3249 1
3250 1
3251 1
3252 1
3253 1
3254 1
3255 1
3256 1
3257 1
3258 1
3259 1
3260 1
3261 1
3262 1
3263 1
3264 1
3265 1
3266 1
3267 1
3268 1
3269 1
3270 1
3271 1
3272 1
3273 1
3274 1
3275 1
3276 1
3277 1
3278 1
3279 1
3280 1
3281 1
3282 1
3283 1
3284 1
3285 1
3286 1
3287 1
3288 1
3289 1
3290 1
3291 1
3292 1
3293 1
3294 1
3295 1
3296 1
3297 1
3298 1
3299 1
3300 1
3301 1
3302 1
3303 1
3304 1
3305 1
3306 1
3307 1
3308 1
3309 1
3310 1
3311 1
3312 1
3313 1
3314 1
3315 1
3316 1
3317 1
3318 1
3319 1
3320 1
3321 1
3322 1
3323 1
3324 1
3325 2
3326 2
3327 300
3328 300
3329 300
3330 300
3331 300
3332 300
3333 300
3334 300
3335 300
3336 300
3337 300
3338 300
3339 300
3340 300
3341 300
3342 300
3343 300
3344 300
3345 150
3346 150
3347 150
3348 150
3349 150
3350 150
3351 150
3352 150
3353 150
3354 150
3355 150
3356 150
3357 150
3358 150
3359 150
3360 150
3361 150
3362 150
3363 5
3364 5
3365 10
3366 10
3367 15
3368 15
3369 10
3370 10
3371 20
3372 20
3373 30
3374 30
3375 10
3376 10
3377 5
3378 5
3379 1
3380 1
3381 1
3382 1
3383 1
3384 1
3385 10000
3386 10000
3387 45000
3388 45000
3389 40000
3390 40000
3391 5000
3392 5000
3393 5000
3394 5000
3395 1
3396 1
3397 1
3398 1
3399 1
3400 1
3401 1
3402 1
3403 1
3404 1
3405 1
3406 11
3407 11
3408 14
3409 14
3410 13
3411 13
3412 13
3413 13
3414 11
3415 11
3416 14
3417 13
3418 13
3419 11
3420 20
3421 20
3422 22
3423 22
3424 20
3425 20
3426 17
3427 17
3428 14
3429 14
3430 100
3431 100
3432 90
3433 90
3434 75
3435 75
3436 60
3437 60
3438 8
3439 8
3440 40
3441 40
3442 80
3443 80
3444 160
3445 160
3446 320
3447 320
3448 640
3449 640
3450 81
3451 82
3452 83
3453 84
3454 85
3455 86
3456 87
3457 88
3458 89
3459 90
3460 91
3461 92
3462 93
3463 94
3464 95
3465 96
3466 97
3467 98
3468 99
3469 100
3470 500
3471 500
3472 1920
3473 1920
3474 6400
3475 6400
3476 64000
3477 64000
3478 64000
3479 64000
3480 64000
3481 65000
3482 65000
3483 64000
3484 64000
3485 64000
3486 35200
3487 35200
3488 54400
3489 54400
3490 1
3491 1
3492 1
3493 1
3494 1
3495 1
3496 1
3497 1
3498 1
3499 1
3500 1
3501 1
3502 1
3503 1
3504 1
3505 1
3506 1
3507 1
3508 1
3509 1
3510 1
3511 50
3512 1
3513 1
3514 1
3515 1
3516 1
3517 50
3518 1
3519 50
3520 1
3521 50
3522 1
3523 50
3524 1
3525 1
3526 1
3527 50
3528 1
3529 50
3530 1
3531 50
3532 1
3533 50
3534 1
3535 50
3536 1
3537 50
3538 1
3539 50
3540 1
3541 50
3542 1
3543 50
3544 1
3545 50
3546 1
3547 50
3548 1
3549 50
3550 1
3551 50
3552 1
3553 50
3554 1
3555 50
3556 1
3557 50
3558 1
3559 50
3560 1
3561 50
3562 1
3563 50
3564 1
3565 100
3566 1
3567 100
3568 1
3569 100
3570 1
3571 100
3572 1
3573 1
3574 1
3575 1
3576 100
3577 1
3578 100
3579 1
3580 1
3581 50
3582 1
3583 50
3584 1
3585 50
3586 1
3587 50
3588 1
3589 50
3590 1
3591 50
3592 1
3593 50
3594 1
3595 50
3596 1
3597 50
3598 1
3599 1
3600 50
3601 1
3602 1
3603 50
3604 1
3605 1
3606 1
3607 1
3608 1
3609 1
3610 1
3611 1
3612 1
3613 1
3614 1
3615 1
3616 1
3617 1
3618 1
3619 1
3620 1
3621 1
3622 1
3623 1
3624 1
3625 1
3626 1
3627 1
3628 1
3629 1
3630 1
3631 1
3632 1
3633 1
3634 1
3635 1
3636 1
3637 1
3638 1
3639 1
3640 1
3641 1
3642 1
3643 1
3644 1
3645 1
3646 1
3647 1
3648 1
3649 1
3650 1
3651 1
3652 1
3653 1
3654 1
3655 1
3656 1
3657 1
3658 1
3659 1
3660 1
3661 1
3662 1
3663 1
3664 1
3665 1
3666 1
3667 1
3668 1920
3669 1920
3670 6400
3671 6400
3672 64000
3673 64000
3674 64000
3675 64000
3676 64000
3677 64000
3678 10000
3679 10000
3680 1
3681 1
3682 1
3683 1
3684 1
3685 1
3686 1
3687 1
3688 1
3689 1
3690 1
3691 1000
3692 1
3693 1
3694 1
3695 1
3696 4
3697 4
3698 1
3699 1
3700 1
3701 1
3702 1
3703 1
3704 1
3705 1
3706 1
3707 1
3708 1
3709 1
3710 1
3711 1
3712 1
3713 1
3714 1
3715 1
3716 1
3717 1
3718 3
3719 1
3720 1
3721 2
3722 1
3723 1
3724 1
3725 1
3726 1
3727 1
3728 1
3729 1
3730 1
3731 1
3732 1
3733 1
3734 1
3735 1
3736 1
3737 1
3738 1
3739 1
3740 1
3741 1
3742 1
3743 1
3744 1
3745 1
3746 1
3747 1
3748 5000
3749 60000
3750 60000
3751 60000
3752 60000
3753 60000
3754 60000
3755 60000
3756 60000
3757 5000
3758 5000
3759 250
3760 250
3761 250
3762 250
3763 250
3764 250
3765 250
3766 250
3767 250
3768 250
3769 250
3770 250
3771 250
3772 250
3773 250
3774 250
3775 250
3776 250
3777 250
3778 250
3779 250
3780 250
3781 250
3782 250
3783 250
3784 250
3785 250
3786 250
3787 250
3788 250
3789 250
3790 250
3791 500
3792 500
3793 500
3794 500
3795 500
3796 500
3797 500
3798 500
3799 500
3800 500
3801 250
3802 250
3803 20
3804 20
3805 5
3806 5
3807 1
3808 1
3809 1
3810 1
3811 1
3812 1
3813 1
3814 1
3815 1
3816 1
3817 1
3818 1
3819 1
3820 1
3821 1
3822 1
3823 1
3824 1
3825 1
3826 1
3827 200
3828 200
3829 200
3830 200
3831 200
3832 200
3833 200
3834 200
3835 200
3836 200
3837 200
3838 200
3839 200
3840 200
3841 200
3842 200
3843 200
3844 200
3845 1
3846 1
3847 1
3848 1
3849 1
3850 1
3851 1
3852 200
3853 1050
3854 1050
3855 1050
3856 1050
3857 1050
3858 1050
3859 1050
3860 1050
3861 1050
3862 1050
3863 1050
3864 1050
3865 1050
3866 1050
3867 1050
3868 1050
3869 1
3870 1
3871 1
3872 1
3873 1
3874 1
3875 1
3876 1
3877 1
3878 1
3879 1
3880 1
3881 1
3882 1
3883 1
3884 1
3885 1
3886 1
3887 1
3888 1
3889 1
3890 1
3891 1
3892 1
3893 800
3894 1
3895 1
3896 1
3897 1
3898 1
3899 15
3900 15
3901 1
3902 1
3903 1
3904 1
3905 1
3906 1
3907 1
3908 1
3909 1
3910 1
3911 1
3912 1
3913 1
3914 1
3915 1
3916 1
3917 1
3918 1
3919 1
3920 1
3921 1
3922 1
3923 1
3924 1
3925 1
3926 1
3927 1
3928 1
3929 1
3930 1
3931 1
3932 1
3933 1
3934 1
3935 1
3936 1
3937 1
3938 1
3939 1
3940 1
3941 1
3942 1
3943 1
3944 1
3945 1
3946 1
3947 1
3948 1
3949 1
3950 1
3951 1
3952 1
3953 1
3954 1
3955 1
3956 1
3957 1
3958 1
3959 1
3960 1
3961 1
3962 1
3963 1
3964 1
3965 1
3966 1
3967 1
3968 1
3969 1
3970 1
3971 1
3972 1
3973 1
3974 1
3975 1
3976 1
3977 1
3978 1
3979 1
3980 1
3981 1
3982 1
3983 1
3984 1
3985 1
3986 1
3987 1
3988 1
3989 1
3990 1
3991 1
3992 1
3993 1
3994 1
3995 1
3996 1
3997 1
3998 1
3999 1
4000 1
4001 5
4002 1
4003 1
4004 1
4005 1
4006 10
4007 800
4008 3
4009 3
4010 3
4011 3
4012 3
4013 3
4014 50
4015 50
4016 300
4017 300
4018 10
4019 10
4020 10
4021 550
4022 500
4023 1000
4024 3000
4025 6000
4026 1000
4027 1500
4028 10000
4029 500
4030 2000
4031 500
4032 1
4033 1
4034 1
4035 1
4036 1
4037 1
4038 1
4039 1
4040 1
4041 1
4042 1
4043 1
4044 1
4045 1
4046 1
4047 1
4048 1
4049 1
4050 1
4051 1
4052 1
4053 1
4054 1
4055 5
4056 1
4057 1
4058 1
4059 1
4060 1
4061 1
4062 1
4063 1
4064 1
4065 1
4066 1
4067 1
4068 500
4069 2000
4070 1000
4071 300
4072 850
4073 1
4074 1
4075 1
4076 1
4077 1
4078 1
4079 10
4080 1
4081 1
4082 1
4083 150
4084 175
4085 15
4086 5
4087 270000
4088 270000
4089 15000
4090 15000
4091 120000
4092 120000
4093 80000
4094 80000
4095 10000
4096 10000
4097 10000
4098 10000
4099 15000
4100 15000
4101 120000
4102 120000
4103 80000
4104 80000
4105 10000
4106 10000
4107 10000
4108 10000
4109 15000
4110 15000
4111 120000
4112 120000
4113 80000
4114 80000
4115 10000
4116 10000
4117 10000
4118 10000
4119 24
4120 24
4121 84
4122 84
4123 300
4124 300
4125 576
4126 576
4127 780
4128 780
4129 1920
4130 1920
4131 12500
4132 12500
4133 1
4134 1
4135 1
4136 1
4137 1
4138 1
4139 1
4140 1
4141 1
4142 1
4143 1
4144 1
4145 1
4146 1
4147 1
4148 1
4149 1
4150 1
4151 130001
4152 120001
4153 50000
4154 50000
4155 10
4156 5000
4157 5000
4158 31000
4159 31000
4160 60
4161 10
4162 500
4163 500
4164 200
4165 200
4166 200
4167 200
4168 200
4169 200
4170 21000
4171 21000
4172 1
4173 1
4174 1
4175 1
4176 1
4177 1
4178 6
4179 1
4180 6
4181 1
4182 6
4183 1
4184 1
4185 1
4186 1
4187 1
4188 1
4189 1
4190 1
4191 1
4192 1
4193 1
4194 1
4195 1
4196 1
4197 1
4198 1
4199 1
4200 1
4201 1
4202 1
4203 1
4204 1
4205 1
4206 1
4207 1
4208 1
4209 2
4210 2
4211 1
4212 900000
4213 900000
4214 900000
4215 800000
4216 700000
4217 600000
4218 500000
4219 400000
4220 300000
4221 200000
4222 100000
4223 50000
4224 800000
4225 750000
4226 670000
4227 590000
4228 510000
4229 430000
4230 350000
4231 270000
4232 190000
4233 100000
4234 25000
4235 800000
4236 160
4237 4
4238 1
4239 4
4240 4
4241 3
4242 10
4243 10
4244 2
4245 10
4246 10
4247 1
4248 1
4249 1
4250 35
4251 1
4252 1
4253 1
4254 1
4255 1
4256 1
4257 1
4258 1
4259 1
4260 1
4261 1
4262 1
4263 1
4264 1
4265 1
4266 1
4267 1
4268 1
4269 1
4270 1
4271 1
4272 1
4273 1
4274 1
4275 1
4276 1
4277 1
4278 1
4279 1
4280 1
4281 1
4282 1
4283 1
4284 1
4285 1
4286 1
4287 1
4288 1
4289 1
4290 1
4291 4
4292 4
4293 4
4294 4
4295 1
4296 1
4297 1
4298 75
4299 75
4300 75
4301 75
4302 75
4303 75
4304 75
4305 75
4306 75
4307 75
4308 75
4309 75
4310 75
4311 75
4312 1
4313 2
4314 2
4315 50
4316 50
4317 50
4318 50
4319 50
4320 50
4321 50
4322 50
4323 50
4324 50
4325 50
4326 50
4327 50
4328 50
4329 50
4330 50
4331 50
4332 50
4333 50
4334 50
4335 50
4336 50
4337 50
4338 50
4339 50
4340 50
4341 50
4342 50
4343 50
4344 50
4345 50
4346 50
4347 50
4348 50
4349 50
4350 50
4351 50
4352 50
4353 50
4354 50
4355 50
4356 50
4357 50
4358 50
4359 50
4360 50
4361 50
4362 50
4363 50
4364 50
4365 50
4366 50
4367 50
4368 50
4369 50
4370 50
4371 50
4372 50
4373 50
4374 50
4375 50
4376 50
4377 50
4378 50
4379 50
4380 50
4381 50
4382 50
4383 50
4384 50
4385 50
4386 50
4387 50
4388 50
4389 50
4390 50
4391 50
4392 50
4393 50
4394 50
4395 50
4396 50
4397 50
4398 50
4399 50
4400 50
4401 50
4402 50
4403 50
4404 50
4405 50
4406 50
4407 50
4408 50
4409 50
4410 50
4411 50
4412 50
4413 50
4414 50
4415 56
4416 100
4417 50
4418 50
4419 50
4420 50
4421 50
4422 50
4423 50
4424 50
4425 1
4426 1
4427 5
4428 50
4429 1
4430 1
4431 1
4432 1
4433 1
4434 1
4435 1
4436 10
4437 10
4438 10
4439 10
4440 15
4441 15
4442 1
4443 1
4444 56
4445 1
4446 1
4447 1
4448 1
4449 1
4450 1
4451 1
4452 1
4453 1
4454 1
4455 1
4456 10
4457 10
4458 10
4459 10
4460 10
4461 10
4462 10
4463 10
4464 10
4465 10
4466 10
4467 10
4468 10
4469 10
4470 15
4471 15
4472 15
4473 15
4474 15
4475 15
4476 15
4477 15
4478 30
4479 30
4480 30
4481 30
4482 30
4483 30
4484 1
4485 1
4486 1
4487 1
4488 1
4489 1
4490 1
4491 1
4492 1
4493 1
4494 1
4495 1
4496 1
4497 1
4498 1
4499 1
4500 1
4501 1
4502 0
4503 1300
4504 5200
4505 2600
4506 780
4507 2210
4508 3200
4509 12800
4510 6400
4511 1920
4512 5440
4513 1
4514 100
4515 1
4516 100
4517 100
4518 100
4519 1
4520 1
4521 1
4522 28
4523 28
4524 28
4525 25
4526 25
4527 10
4528 10
4529 15
4530 15
4531 15
4532 15
4533 15
4534 15
4535 120
4536 120
4537 125
4538 125
4539 125
4540 90
4541 90
4542 70
4543 70
4544 300
4545 300
4546 400
4547 400
4548 420
4549 420
4550 420
4551 650
4552 650
4553 1
4554 1
4555 1
4556 1
4557 1
4558 0
4559 0
4560 0
4561 0
4562 0
4563 0
4564 0
4565 0
4566 0
4567 1
4568 1
4569 1
4570 1
4571 1
4572 1
4573 1
4574 1
4575 1
4576 1
4577 1
4578 1
4579 1
4580 650
4581 650
4582 750
4583 750
4584 750
4585 270000
4586 270000
4587 100000
4588 100000
4589 1
4590 1
4591 1
4592 1
4593 1
4594 1
4595 1
4596 1
4597 1
4598 1
4599 1
4600 600
4601 1
4602 1
4603 1
4604 1
4605 1
4606 1
4607 1
4608 3
4609 3
4610 1
4611 1
4612 600
4613 50
4614 0
4615 1
4616 2
4617 1
4618 2
4619 1
4620 1
4621 1
4622 1
4623 1
4624 1
4625 1
4626 1
4627 500
4628 500
4629 1
4630 1
4631 1
4632 1
4633 1
4634 1
4635 1
4636 1
4637 1
4638 1
4639 1
4640 1
4641 1
4642 1
4643 1
4644 1
4645 1
4646 1
4647 1
4648 1
4649 1
4650 1
4651 1
4652 1
4653 250
4654 250
4655 250
4656 250
4657 350
4658 250
4659 250
4660 250
4661 250
4662 250
4663 250
4664 250
4665 250
4666 250
4667 250
4668 10
4669 10
4670 250
4671 250
4672 250
4673 250
4674 250
4675 300000
4676 100000
4677 1
4678 1
4679 1
4680 1
4681 1
4682 1
4683 1
4684 30
4685 30
4686 0
4687 30
4688 30
4689 20
4690 20
4691 1
4692 1
4693 6
4694 20
4695 20
4696 20
4697 20
4698 20
4699 20
4700 600
4701 600
4702 600
4703 1
4704 1
4705 1
4706 1
4707 5
4708 13000
4709 13000
4710 85000
4711 85000
4712 50000
4713 50000
4714 47000
4715 47000
4716 103000
4717 103000
4718 208000
4719 208000
4720 280000
4721 280000
4722 275000
4723 275000
4724 103000
4725 103000
4726 100000
4727 100000
4728 280000
4729 280000
4730 275000
4731 275000
4732 13000
4733 13000
4734 160000
4735 160000
4736 50000
4737 50000
4738 47000
4739 47000
4740 50
4741 1
4742 1
4743 1
4744 1
4745 103000
4746 103000
4747 160000
4748 160000
4749 280000
4750 280000
4751 275000
4752 275000
4753 103000
4754 103000
4755 160000
4756 160000
4757 280000
4758 280000
4759 275000
4760 275000
4761 1
4762 1
4763 1
4764 1
4765 1
4766 1
4767 1
4768 1
4769 1
4770 1
4771 1
4772 1
4773 5
4774 1
4775 1
4776 1
4777 1
4778 10
4779 1
4780 1
4781 1
4782 1
4783 20
4784 1
4785 1
4786 1
4787 1
4788 35
4789 1
4790 1
4791 1
4792 1
4793 50
4794 1
4795 1
4796 1
4797 1
4798 95
4799 1
4800 1
4801 1
4802 1
4803 450
4804 1
4805 1
4806 1
4807 1
4808 1
4809 1
4810 1
4811 1
4812 1
4813 1
4814 1
4815 1
4816 1
4817 1
4818 1
4819 2
4820 4
4821 12
4822 18
4823 45
4824 220
4825 90
4826 90
4827 180
4828 180
4829 1
4830 1
4831 1
4832 1
4833 1
4834 1
4835 1
4836 1
4837 1
4838 10
4839 1
4840 5
4841 5
4842 225
4843 225
4844 200
4845 200
4846 150
4847 150
4848 75
4849 75
4850 100
4851 100
4852 1
4853 1
4854 1
4855 1
4856 13000
4857 13000
4858 13000
4859 13000
4860 13000
4861 13000
4862 85000
4863 85000
4864 85000
4865 85000
4866 85000
4867 85000
4868 50000
4869 50000
4870 50000
4871 50000
4872 50000
4873 50000
4874 47000
4875 47000
4876 47000
4877 47000
4878 47000
4879 47000
4880 103000
4881 103000
4882 103000
4883 103000
4884 103000
4885 103000
4886 208000
4887 208000
4888 208000
4889 208000
4890 208000
4891 208000
4892 280000
4893 280000
4894 280000
4895 280000
4896 280000
4897 280000
4898 275000
4899 275000
4900 275000
4901 275000
4902 275000
4903 275000
4904 103000
4905 103000
4906 103000
4907 103000
4908 103000
4909 103000
4910 100000
4911 100000
4912 100000
4913 100000
4914 100000
4915 100000
4916 280000
4917 280000
4918 280000
4919 280000
4920 280000
4921 280000
4922 275000
4923 275000
4924 275000
4925 275000
4926 275000
4927 275000
4928 13000
4929 13000
4930 13000
4931 13000
4932 13000
4933 13000
4934 160000
4935 160000
4936 160000
4937 160000
4938 160000
4939 160000
4940 50000
4941 50000
4942 50000
4943 50000
4944 50000
4945 50000
4946 47000
4947 47000
4948 47000
4949 47000
4950 47000
4951 47000
4952 103000
4953 103000
4954 103000
4955 103000
4956 103000
4957 103000
4958 160000
4959 160000
4960 160000
4961 160000
4962 160000
4963 160000
4964 280000
4965 280000
4966 280000
4967 280000
4968 280000
4969 280000
4970 275000
4971 275000
4972 275000
4973 275000
4974 275000
4975 275000
4976 103000
4977 103000
4978 103000
4979 103000
4980 103000
4981 103000
4982 160000
4983 160000
4984 160000
4985 160000
4986 160000
4987 160000
4988 280000
4989 280000
4990 280000
4991 280000
4992 280000
4993 280000
4994 275000
4995 275000
4996 275000
4997 275000
4998 275000
4999 275000
5000 1
5001 15
5002 0
5003 15
5004 5
5005 15
5006 0
5007 15
5008 1
5009 1
5010 1
5011 1
5012 1
5013 600
5014 600
5015 600
5016 600
5017 600
5018 600
5019 600
5020 500000000
5021 1000000000
5022 1500000000
5023 2000000000
5024 500
5025 500
5026 625
5027 625
5028 650
5029 650
5030 450
5031 450
5032 600
5033 600
5034 625
5035 625
5036 550
5037 550
5038 700
5039 700
5040 750
5041 750
5042 280
5043 280
5044 360
5045 360
5046 390
5047 390
5048 350
5049 350
5050 550
5051 550
5052 625
5053 625
5054 1
5055 1
5056 1
5057 1
5058 1
5059 1
5060 1
5061 1
5062 1
5063 1
5064 1
5065 1
5066 1
5067 1
5068 1
5069 1
5070 1
5071 1
5072 1
5073 1
5074 1
5075 1
5076 1
5077 1
5078 1
5079 1
5080 1
5081 1
5082 1
5083 1
5084 1
5085 1
5086 1
5087 1
5088 1
5089 1
5090 1
5091 1
5092 1
5093 1
5094 1
5095 1
5096 2
5097 4
5098 11
5099 11
5100 12
5101 4
5102 9
5103 25
5104 60
5105 133
5106 166
5107 1
5108 1
5109 1
5110 1
5111 1
5112 1
5113 1
5114 1
5115 1
5116 1
5117 1
5118 1
5119 1
5120 1
5121 1
5122 1
5123 1
5124 1
5125 1
5126 1
5127 1
5128 1
5129 1
5130 1
5131 1
5132 1
5133 1
5134 1
5135 1
5136 1
5137 1
5138 1
5139 1
5140 1
5141 1
5142 1
5143 1
5144 1
5145 1
5146 1
5147 1
5148 1
5149 1
5150 1
5151 1
5152 1
5153 1
5154 1
5155 1
5156 1
5157 1
5158 1
5159 1
5160 1
5161 1
5162 1
5163 1
5164 1
5165 1
5166 1
5167 1
5168 1
5169 1
5170 1
5171 1
5172 1
5173 1
5174 1
5175 1
5176 1
5177 1
5178 1
5179 1
5180 1
5181 1
5182 1
5183 1
5184 1
5185 1
5186 1
5187 1
5188 1
5189 1
5190 1
5191 1
5192 1
5193 1
5194 1
5195 1
5196 1
5197 1
5198 1
5199 1
5200 1
5201 1
5202 1
5203 1
5204 1
5205 1
5206 1
5207 1
5208 1
5209 1
5210 1
5211 1
5212 1
5213 1
5214 1
5215 1
5216 1
5217 1
5218 1
5219 1
5220 1
5221 1
5222 1
5223 1
5224 1
5225 1
5226 1
5227 1
5228 1
5229 1
5230 1
5231 1
5232 1
5233 1
5234 1
5235 1
5236 1
5237 1
5238 1
5239 1
5240 1
5241 1
5242 1
5243 1
5244 1
5245 1
5246 1
5247 1
5248 1
5249 1
5250 1
5251 1
5252 1
5253 1
5254 1
5255 1
5256 1
5257 1
5258 1
5259 1
5260 1
5261 1
5262 1
5263 1
5264 1
5265 1
5266 1
5267 1
5268 1
5269 1
5270 1
5271 1
5272 1
5273 1
5274 1
5275 1
5276 1
5277 1
5278 1
5279 1
5280 99
5281 177
5282 86
5283 13
5284 20
5285 31
5286 39
5287 74
5288 115
5289 254
5290 340
5291 124
5292 124
5293 144
5294 144
5295 587
5296 698
5297 658
5298 487
5299 582
5300 524
5301 1054
5302 578
5303 689
5304 638
5305 2
5306 5
5307 2
5308 3
5309 6
5310 8
5311 14
5312 6
5313 16
5314 48
5315 143
5316 422
5317 1
5318 2
5319 3
5320 8
5321 56
5322 4
5323 18
5324 3
5325 12
5326 12
5327 1
5328 1
5329 5
5330 5
5331 8
5332 8
5333 1
5334 1
5335 1
5336 1
5337 1
5338 1
5339 1
5340 1
5341 6
5342 6
5343 6
5344 6
5345 25
5346 25
5347 1
5348 1
5349 1
5350 1
5351 1
5352 1
5353 1
5354 1
5355 1
5356 1
5357 1
5358 1
5359 1
5360 1
5361 1
5362 1
5363 1
5364 1
5365 1
5366 1
5367 1
5368 1
5369 1
5370 1
5371 1
5372 1
5373 1
5374 1
5375 1
5376 1
5377 1
5378 1
5379 1
5380 1
5381 1
5382 1
5383 1
5384 1
5385 1
5386 1
5387 1
5388 1
5389 1
5390 1
5391 1
5392 1
5393 1
5394 1
5395 1
5396 1
5397 1
5398 1
5399 1
5400 1
5401 1
5402 1
5403 1
5404 1
5405 1
5406 1
5407 1
5408 1
5409 1
5410 1
5411 1
5412 1
5413 1
5414 1
5415 1
5416 1
5417 1
5418 1
5419 1
5420 1
5421 1
5422 1
5423 1
5424 1
5425 1
5426 1
5427 1
5428 1
5429 1
5430 1
5431 1
5432 1
5433 1
5434 1
5435 1
5436 1
5437 1
5438 1
5439 1
5440 1
5441 1
5442 1
5443 1
5444 1
5445 1
5446 1
5447 1
5448 1
5449 1
5450 1
5451 1
5452 1
5453 1
5454 1
5455 1
5456 1
5457 1
5458 1
5459 1
5460 1
5461 1
5462 1
5463 1
5464 1
5465 1
5466 1
5467 1
5468 1
5469 1
5470 1
5471 1
5472 1
5473 1
5474 1
5475 1
5476 1
5477 1
5478 1
5479 1
5480 1
5481 1
5482 1
5483 1
5484 1
5485 1
5486 1
5487 1
5488 1
5489 1
5490 1
5491 1
5492 1
5493 1
5494 1
5495 1
5496 1
5497 1
5498 1
5499 1
5500 1
5501 1
5502 1
5503 1
5504 17
5505 17
5506 1
5507 1
5508 1
5509 150
5510 300
5511 300
5512 600
5513 600
5514 1200
5515 1200
5516 500
5517 500
5518 1
5519 1
5520 10
5521 1425
5522 1425
5523 100
5524 100
5525 100
5526 100
5527 100
5528 100
5529 100
5530 100
5531 100
5532 100
5533 100
5534 100
5535 100
5536 100
5537 100
5538 100
5539 100
5540 100
5541 100
5542 100
5543 100
5544 100
5545 100
5546 1
5547 100
5548 100
5549 100
5550 100
5551 100
5552 100
5553 625
5554 375
5555 500
5556 250
5557 250
5558 50
5559 1
5560 10
5561 1
5562 1
5563 1
5564 1
5565 1
5566 1
5567 1
5568 1
5569 1
5570 1
5571 1
5572 1
5573 1
5574 6000
5575 10000
5576 8000
5577 1
5578 1
5579 1
5580 1
5581 1
5582 1
5583 1
5584 1
5585 1
5586 1
5587 1
5588 1
5589 1
5590 1
5591 1
5592 10
5593 20
5594 20
5595 20
5596 20
5597 20
5598 20
5599 20
5600 20
5601 1
5602 20
5603 1
5604 3
5605 6
5606 1
5607 1
5608 1
5609 1
5610 1
5611 6000
5612 10000
5613 8000
5614 1
5615 1
5616 1
5617 3
5618 12
5619 32
5620 80
5621 400
5622 1
5623 3
5624 12
5625 32
5626 80
5627 400
5628 1
5629 2
5630 10
5631 18
5632 25
5633 65
5634 350
5635 1
5636 2
5637 10
5638 18
5639 25
5640 65
5641 350
5642 4
5643 6
5644 24
5645 64
5646 160
5647 400
5648 4
5649 6
5650 24
5651 64
5652 160
5653 400
5654 1
5655 3
5656 10
5657 27
5658 18
5659 66
5660 166
5661 1
5662 3
5663 10
5664 27
5665 18
5666 66
5667 166
5668 35
5669 35
5670 10
5671 10
5672 125
5673 125
5674 325
5675 325
5676 800
5677 800
5678 8000
5679 8000
5680 24000
5681 24000
5682 240
5683 240
5684 565
5685 565
5686 35
5687 35
5688 10
5689 10
5690 125
5691 125
5692 325
5693 325
5694 800
5695 800
5696 8000
5697 8000
5698 24000
5699 24000
5700 240
5701 240
5702 565
5703 565
5704 26
5705 26
5706 91
5707 91
5708 325
5709 325
5710 845
5711 845
5712 2080
5713 2080
5714 20800
5715 20800
5716 62400
5717 62400
5718 26
5719 26
5720 91
5721 91
5722 325
5723 325
5724 845
5725 845
5726 2080
5727 2080
5728 20800
5729 20800
5730 62400
5731 62400
5732 1
5733 1
5734 750
5735 750
5736 750
5737 750
5738 1
5739 2
5740 2
5741 2
5742 2
5743 2
5744 2
5745 2
5746 2
5747 2
5748 2
5749 5
5750 5
5751 2
5752 2
5753 2
5754 2
5755 2
5756 2
5757 2
5758 2
5759 2
5760 2
5761 2
5762 2
5763 2
5764 2
5765 2
5766 2
5767 1
5768 1
5769 1
5770 1
5771 1
5772 1
5773 1
5774 1
5775 1
5776 1
5777 1
5778 1
5779 1
5780 1
5781 1
5782 1
5783 1
5784 1
5785 1
5786 1
5787 1
5788 1
5789 1
5790 1
5791 1
5792 1
5793 1
5794 1
5795 1
5796 1
5797 1
5798 1
5799 1
5800 1
5801 1
5802 1
5803 1
5804 1
5805 1
5806 1
5807 1
5808 1
5809 1
5810 1
5811 1
5812 1
5813 1
5814 1
5815 1
5816 1
5817 1
5818 1
5819 1
5820 1
5821 1
5822 1
5823 1
5824 1
5825 1
5826 1
5827 1
5828 1
5829 1
5830 1
5831 1
5832 1
5833 1
5834 1
5835 1
5836 1
5837 1
5838 1
5839 1
5840 1
5841 1
5842 1
5843 1
5844 1
5845 1
5846 1
5847 1
5848 1
5849 1
5850 1
5851 1
5852 1
5853 1
5854 1
5855 1
5856 1
5857 1
5858 1
5859 1
5860 1
5861 1
5862 1
5863 1
5864 1
5865 1
5866 1
5867 1
5868 1
5869 1
5870 1
5871 1
5872 1
5873 1
5874 1
5875 1
5876 1
5877 1
5878 1
5879 1
5880 1
5881 1
5882 1
5883 1
5884 1
5885 1
5886 1
5887 1
5888 1
5889 1
5890 1
5891 1
5892 1
5893 1
5894 1
5895 1
5896 1
5897 1
5898 1
5899 1
5900 1
5901 1
5902 1
5903 1
5904 1
5905 1
5906 1
5907 1
5908 1
5909 1
5910 1
5911 1
5912 1
5913 1
5914 1
5915 1
5916 1
5917 1
5918 1
5919 1
5920 1
5921 1
5922 1
5923 1
5924 1
5925 1
5926 1
5927 1
5928 1
5929 1
5930 1
5931 6
5932 6
5933 2
5934 2
5935 1
5936 1
5937 288
5938 288
5939 14
5940 432
5941 432
5942 14
5943 360
5944 360
5945 288
5946 288
5947 216
5948 216
5949 144
5950 144
5951 14
5952 360
5953 360
5954 288
5955 288
5956 216
5957 216
5958 144
5959 144
5960 1
5961 1
5962 1
5963 1
5964 1
5965 1
5966 1
5967 1
5968 1
5969 1
5970 19
5971 19
5972 64
5973 64
5974 87
5975 87
5976 87
5977 87
5978 1
5979 1
5980 54
5981 54
5982 48
5983 48
5984 16
5985 16
5986 9
5987 9
5988 9
5989 9
5990 1
5991 1
5992 13
5993 13
5994 4
5995 4
5996 5
5997 5
5998 7
5999 7
6000 10
6001 10
6002 15
6003 15
6004 38
6005 38
6006 4
6007 4
6008 4
6009 4
6010 1
6011 1
6012 4
6013 4
6014 2
6015 2
6016 1
6017 1
6018 65
6019 65
6020 1
6021 1
6022 1
6023 1
6024 1
6025 1
6026 1
6027 1
6028 1
6029 1
6030 1
6031 1
6032 20
6033 20
6034 85
6035 85
6036 40
6037 40
6038 1
6039 1
6040 1
6041 1
6042 1
6043 1
6044 1
6045 1
6046 1
6047 1
6048 1
6049 1
6050 1
6051 1
6052 1
6053 1
6054 1
6055 1
6056 1
6057 1
6058 1
6059 1
6060 1
6061 0
6062 0
6063 1
6064 20
6065 150
6066 20
6067 100
6068 20
6069 30
6070 50
6071 1
6072 10
6073 2
6074 2
6075 2
6076 2
6077 2
6078 2
6079 2
6080 2
6081 10
6082 150
6083 1
6084 1
6085 20
6086 20
6087 20
6088 20
6089 1
6090 1
6091 1
6092 1
6093 1
6094 1
6095 1
6096 1
6097 10
6098 50
6099 50
6100 45
6101 35
6102 15
6103 1
6104 1
6105 1
6106 300
6107 300
6108 300
6109 300
6110 300
6111 250
6112 2
6113 4
6114 1
6115 1
6116 1
6117 1
6118 2
6119 1
6120 1
6121 1
6122 1
6123 1
6124 1
6125 1000
6126 1000
6127 1000
6128 35200
6129 65000
6130 64000
6131 60000
6132 60000
6133 7800
6134 7800
6135 3900
6136 3900
6137 10000
6138 10000
6139 45000
6140 45000
6141 40000
6142 40000
6143 650
6144 650
6145 650
6146 650
6147 650
6148 650
6149 650
6150 650
6151 650
6152 650
6153 650
6154 650
6155 60
6156 60
6157 60
6158 60
6159 60
6160 60
6161 60
6162 60
6163 60
6164 60
6165 60
6166 60
6167 60
6168 60
6169 60
6170 60
6171 60
6172 60
6173 60
6174 60
6175 35200
6176 65000
6177 64000
6178 5
6179 5
6180 1
6181 1
6182 1
6183 0
6184 0
6185 0
6186 0
6187 0
6188 0
6189 1
6190 1
6191 1
6192 1
6193 1
6194 1
6195 1
6196 1
6197 1
6198 1
6199 1
6200 0
6201 1
6202 0
6203 1
6204 0
6205 1
6206 0
6207 1
6208 1
6209 5
6210 1
6211 100
6212 100
6213 200
6214 200
6215 3000
6216 3000
6217 2750
6218 2750
6219 3000
6220 3000
6221 3000
6222 3000
6223 3000
6224 3000
6225 3000
6226 3000
6227 3000
6228 3000
6229 3000
6230 3000
6231 3000
6232 3000
6233 3000
6234 3000
6235 3000
6236 3000
6237 3000
6238 3000
6239 3000
6240 3000
6241 3000
6242 3000
6243 3000
6244 3000
6245 3000
6246 3000
6247 3000
6248 3000
6249 3000
6250 3000
6251 3000
6252 3000
6253 3000
6254 3000
6255 3000
6256 3000
6257 3000
6258 3000
6259 3000
6260 3000
6261 3000
6262 3000
6263 3000
6264 3000
6265 3000
6266 3000
6267 3000
6268 3000
6269 3000
6270 3000
6271 3000
6272 3000
6273 3000
6274 3000
6275 3000
6276 3000
6277 3000
6278 3000
6279 3000
6280 3000
6281 10
6282 10
6283 15
6284 15
6285 20
6286 20
6287 35
6288 35
6289 50
6290 50
6291 15
6292 15
6293 25
6294 25
6295 20
6296 20
6297 50
6298 50
6299 40
6300 40
6301 1
6302 1
6303 1
6304 1
6305 10
6306 1
6307 1
6308 1
6309 1
6310 1
6311 200
6312 200
6313 500
6314 500
6315 1000
6316 1000
6317 2000
6318 2000
6319 5
6320 5
6321 1
6322 1250
6323 1250
6324 1175
6325 1175
6326 300
6327 300
6328 250
6329 250
6330 434
6331 434
6332 50
6333 30
6334 30
6335 500
6336 500
6337 500
6338 500
6339 500
6340 500
6341 300
6342 300
6343 250
6344 250
6345 200
6346 200
6347 150
6348 150
6349 100
6350 100
6351 300
6352 300
6353 250
6354 250
6355 200
6356 200
6357 100
6358 100
6359 150
6360 150
6361 300
6362 300
6363 250
6364 250
6365 200
6366 200
6367 100
6368 100
6369 150
6370 150
6371 300
6372 300
6373 250
6374 250
6375 200
6376 200
6377 100
6378 100
6379 150
6380 150
6381 1
6382 20
6383 20
6384 15
6385 15
6386 25
6387 25
6388 35
6389 35
6390 25
6391 25
6392 35
6393 35
6394 20
6395 20
6396 40
6397 40
6398 20
6399 20
6400 35
6401 35
6402 20
6403 20
6404 40
6405 40
6406 20
6407 20
6408 400
6409 400
6410 400
6411 400
6412 800
6413 800
6414 800
6415 800
6416 1200
6417 1200
6418 1600
6419 1600
6420 1600
6421 1600
6422 1
6423 1
6424 1
6425 1
6426 1
6427 1
6428 1
6429 1
6430 1
6431 1
6432 1
6433 1
6434 1
6435 1
6436 1
6437 1
6438 1
6439 1
6440 1
6441 1
6442 1
6443 1
6444 1
6445 1
6446 1
6447 1
6448 3
6449 1
6450 1
6451 1
6452 1
6453 1
6454 1
6455 1
6456 1
6457 1
6458 1
6459 1
6460 1
6461 1
6462 1
6463 1
6464 1
6465 1
6466 1
6467 1
6468 1
6469 1
6470 120
6471 120
6472 90
6473 90
6474 60
6475 60
6476 30
6477 30
6478 1
6479 1
6480 1
6481 1
6482 1
6483 1
6484 1
6485 1
6486 1
6487 1
6488 1
6489 1
6490 1
6491 1
6492 1
6493 1
6494 1
6495 1
6496 1
6497 1
6498 1
6499 1
6500 1
6501 1
6502 1
6503 1
6504 1
6505 1
6506 1
6507 1
6508 1
6509 1
6510 1
6511 1
6512 1
6513 1
6514 1
6515 1
6516 1
6517 1
6518 1
6519 1
6520 1
6521 1
6522 250
6523 40000
6524 45000
6525 25000
6526 35000
6527 30000
6528 50000
6529 1
6530 1
6531 1
6532 1
6533 1
6534 1
6535 40000
6536 45000
6537 25000
6538 35000
6539 30000
6540 50000
6541 1
6542 1
6543 1
6544 1
6545 1
6546 1
6547 1
6548 1
6549 1
6550 1
6551 1
6552 1
6553 1
6554 1
6555 1
6556 1
6557 1
6558 1
6559 1
6560 1
6561 2
6562 17000
6563 45000
6564 1
6565 1
6566 1
6567 1
6568 60000
6569 60000
6570 60000
6571 200000
6572 200000
6573 200000
6574 200000
6575 201000
6576 201000
6577 201000
6578 201000
6579 201000
6580 201000
6581 201000
6582 201000
6583 202000
6584 202000
6585 202000
6586 202000
6587 360
6588 360
6589 1248
6590 1248
6591 240
6592 240
6593 240
6594 240
6595 240
6596 240
6597 240
6598 240
6599 1920
6600 1920
6601 432
6602 432
6603 200
6604 200
6605 624
6606 624
6607 960
6608 960
6609 1920
6610 1920
6611 768
6612 768
6613 980
6614 980
6615 1440
6616 1440
6617 3840
6618 3840
6619 576
6620 576
6621 576
6622 576
6623 1056
6624 1056
6625 1920
6626 1920
6627 1920
6628 1920
6629 6
6630 6
6631 1152
6632 1152
6633 1632
6634 1632
6635 1
6636 1
6637 1
6638 1
6639 1
6640 1
6641 1
6642 1
6643 1
6644 1
6645 1
6646 1
6647 1
6648 1
6649 1
6650 1
6651 1
6652 1
6653 1
6654 1
6655 1
6656 1
6657 1
6658 1
6659 1
6660 1
6661 1
6662 0
6663 0
6664 60
6665 0
6666 1
6667 1
6668 0
6669 0
6670 0
6671 0
6672 0
6673 0
6674 10
6675 1
6676 1
6677 5
6678 5
6679 5
6680 5
6681 2
6682 2
6683 2
6684 2
6685 200
6686 900
6687 175
6688 175
6689 150
6690 150
6691 125
6692 125
6693 1
6694 1
6695 1
6696 1
6697 4
6698 4
6699 1
6700 1
6701 4
6702 4
6703 8
6704 8
6705 350
6706 350
6707 1
6708 1
6709 1
6710 166
6711 1
6712 1
6713 5
6714 5
6715 1
6716 1
6717 20000
6718 1
6719 1
6720 200
6721 1
6722 0
6723 1
6724 8000
6725 8000
6726 17000
6727 45000
6728 1
6729 1
6730 1
6731 10000
6732 10000
6733 10000
6734 10000
6735 10000
6736 10000
6737 10000
6738 10000
6739 55000
6740 55000
6741 1800
6742 1800
6743 54999
6744 54999
6745 50
6746 500
6747 0
6748 0
6749 0
6750 40
6751 40
6752 30
6753 30
6754 1
6755 1
6756 1
6757 1
6758 1
6759 1
6760 625
6761 625
6762 625
6763 625
6764 625
6765 625
6766 1
6767 1
6768 1
6769 1
6770 1
6771 1
6772 1
6773 1
6774 1
6775 1
6776 1
6777 1
6778 1
6779 1
6780 1
6781 1
6782 1
6783 1
6784 1
6785 1
6786 1
6787 1
6788 1
6789 1
6790 1
6791 1
6792 1
6793 1
6794 30
6795 30
6796 1
6797 1
6798 1
6799 1
6800 1
6801 1
6802 1
6803 1
6804 1
6805 1
6806 1
6807 1
6808 1
6809 66000
6810 1
6811 1
6812 1
6813 66000
6814 10
6815 10
6816 1
6817 1
6818 1
6819 1
6820 1
6821 1
6822 1
6823 1
6824 1
6825 1
6826 1
6827 1
6828 1
6829 1
6830 1
6831 1
6832 1
6833 1
6834 1
6835 1
6836 1
6837 1
6838 1
6839 1
6840 1
6841 1
6842 1
6843 1
6844 1
6845 1
6846 1
6847 1
6848 1
6849 1
6850 1
6851 1
6852 1
6853 1
6854 1
6855 1
6856 1
6857 1
6858 1
6859 1
6860 1
6861 1
6862 1
6863 1
6864 60000
6865 1
6866 1
6867 1
6868 1
6869 1
6870 1
6871 1
6872 1
6873 1
6874 1
6875 1
6876 1
6877 1
6878 1
6879 1
6880 1
6881 1
6882 1
6883 1
6884 1
6885 1
6886 1
6887 1
6888 1
6889 500
6890 500
6891 1
6892 1
6893 0
6894 0
6895 0
6896 0
6897 0
6898 0
6899 0
6900 0
6901 0
6902 1
6903 0
6904 1
6905 1
6906 1
6907 1
6908 1200
6909 1200
6910 1500
6911 1500
6912 2000
6913 2000
6914 2500
6915 2500
6916 140000
6917 140000
6918 17000
6919 17000
6920 12000
6921 12000
6922 12000
6923 12000
6924 90000
6925 90000
6926 1
6927 1
6928 1
6929 1
6930 1
6931 1
6932 1
6933 1
6934 1
6935 1
6936 1
6937 1
6938 1
6939 1
6940 1
6941 1
6942 1
6943 1
6944 1
6945 1
6946 1
6947 1
6948 1
6949 1
6950 1
6951 1
6952 1
6953 1
6954 1
6955 1
6956 1
6957 1
6958 1
6959 1
6960 1
6961 25
6962 25
6963 25
6964 6
6965 25
6966 1
6967 6
6968 25
6969 6
6970 1
6971 1
6972 1
6973 1
6974 1
6975 1
6976 1
6977 1
6978 1
6979 1
6980 1
6981 1
6982 1
6983 1
6984 1
6985 1
6986 1
6987 1
6988 1
6989 1
6990 1
6991 1
6992 1
6993 1
6994 1
6995 1
6996 1
6997 1
6998 1
6999 1
7000 1
7001 1
7002 1
7003 1
7004 1
7005 1
7006 1
7007 1
7008 1
7009 1
7010 1
7011 1
7012 1
7013 1
7014 1
7015 1
7016 1
7017 1
7018 1
7019 1
7020 1
7021 1
7022 1
7023 1
7024 1
7025 1
7026 1
7027 1
7028 1
7029 1
7030 1
7031 1
7032 1
7033 1
7034 1
7035 1
7036 1
7037 1
7038 1
7039 1
7040 1
7041 1
7042 1
7043 1
7044 1
7045 1
7046 1
7047 1
7048 1
7049 1
7050 1
7051 130
7052 130
7053 130
7054 13
7055 13
7056 12
7057 12
7058 45
7059 45
7060 113
7061 113
7062 13
7063 13
7064 12
7065 12
7066 45
7067 45
7068 113
7069 113
7070 8
7071 8
7072 9
7073 9
7074 7
7075 7
7076 8
7077 8
7078 8
7079 8
7080 42
7081 42
7082 42
7083 42
7084 7
7085 7
7086 104
7087 104
7088 13
7089 13
7090 5
7091 5
7092 5
7093 5
7094 5
7095 5
7096 1
7097 1
7098 1
7099 1
7100 1
7101 1
7102 1
7103 1
7104 1
7105 1
7106 1
7107 1
7108 52
7109 52
7110 300
7111 300
7112 100
7113 100
7114 350
7115 350
7116 350
7117 350
7118 1
7119 1
7120 1
7121 1
7122 300
7123 300
7124 100
7125 100
7126 350
7127 350
7128 300
7129 300
7130 100
7131 100
7132 350
7133 350
7134 300
7135 300
7136 100
7137 100
7138 350
7139 350
7140 2560
7141 1040
7142 25600
7143 1
7144 1
7145 1
7146 1
7147 1
7148 1
7149 1
7150 1
7151 1
7152 1
7153 1
7154 1
7155 18
7156 1
7157 30
7158 220000
7159 200
7160 1
7161 200
7162 5
7163 5
7164 22
7165 22
7166 26
7167 26
7168 27
7169 27
7170 54
7171 54
7172 8
7173 8
7174 11
7175 11
7176 12
7177 12
7178 24
7179 24
7180 12
7181 12
7182 24
7183 24
7184 49
7185 49
7186 50
7187 50
7188 100
7189 100
7190 50
7191 50
7192 54
7193 54
7194 154
7195 154
7196 155
7197 155
7198 310
7199 310
7200 155
7201 155
7202 5
7203 5
7204 90
7205 90
7206 91
7207 91
7208 182
7209 182
7210 91
7211 91
7212 21
7213 21
7214 69
7215 69
7216 70
7217 70
7218 140
7219 140
7220 70
7221 70
7222 1
7223 20
7224 84
7225 64
7226 1
7227 1
7228 85
7229 85
7230 149
7231 1
7232 20
7233 84
7234 64
7235 149
7236 1
7237 50
7238 1
7239 1
7240 50
7241 1
7242 50
7243 1
7244 50
7245 1
7246 50
7247 1
7248 1
7249 1
7250 1
7251 1
7252 1
7253 1
7254 1
7255 1
7256 1
7257 50
7258 1
7259 50
7260 1
7261 50
7262 1
7263 50
7264 1
7265 50
7266 1
7267 50
7268 1
7269 1
7270 1
7271 1
7272 1
7273 1
7274 1
7275 1
7276 1
7277 1
7278 1
7279 1
7280 1
7281 1
7282 1
7283 1
7284 1
7285 1
7286 1
7287 50
7288 1
7289 50
7290 1
7291 50
7292 1
7293 50
7294 1
7295 50
7296 1
7297 1
7298 1
7299 1
7300 1
7301 1
7302 1
7303 1
7304 1
7305 1
7306 50
7307 1
7308 50
7309 1
7310 50
7311 1
7312 50
7313 1
7314 50
7315 1
7316 50
7317 1
7318 50
7319 225
7320 225
7321 225
7322 225
7323 225
7324 225
7325 225
7326 225
7327 225
7328 225
7329 15
7330 15
7331 15
7332 1632
7333 1632
7334 5440
7335 5440
7336 54400
7337 54400
7338 16325
7339 16325
7340 5440
7341 5440
7342 54400
7343 54400
7344 1632
7345 1632
7346 5440
7347 5440
7348 54400
7349 54400
7350 1632
7351 1632
7352 5440
7353 5440
7354 54400
7355 54400
7356 1632
7357 1632
7358 5440
7359 5440
7360 54400
7361 54400
7362 850
7363 850
7364 850
7365 850
7366 750
7367 750
7368 750
7369 750
7370 7800
7371 7800
7372 7800
7373 7800
7374 9360
7375 9360
7376 9360
7377 9360
7378 3900
7379 3900
7380 3900
7381 3900
7382 4320
7383 4320
7384 4320
7385 4320
7386 2
7387 2
7388 2
7389 2
7390 15
7391 15
7392 15
7393 15
7394 2
7395 2
7396 2
7397 2
7398 80000
7399 120000
7400 15000
7401 80000
7402 120000
7403 15000
7404 4
7405 4
7406 4
7407 220000
7408 1
7409 1
7410 1
7411 1
7412 1
7413 1
7414 1
7415 1
7416 600
7417 600
7418 400
7419 400
7420 1
7421 300
7422 1
7423 1
7424 1
7425 1
7426 1
7427 1
7428 1
7429 1
7430 1
7431 1
7432 10
7433 35
7434 35
7435 50
7436 50
7437 325
7438 325
7439 1920
7440 1920
7441 1660
7442 1660
7443 3200
7444 3200
7445 14400
7446 14400
7447 8000
7448 8000
7449 41500
7450 41500
7451 25600
7452 25600
7453 50
7454 100
7455 250
7456 500
7457 1000
7458 1500
7459 2500
7460 5000
7461 100000
7462 100000
7463 2
7464 1
7465 1
7466 1
7467 1
7468 10
7469 10
7470 1
7471 1
7472 1
7473 1
7474 1
7475 1
7476 1
7477 1
7478 1
7479 20
7480 1
7481 1
7482 1
7483 1
7484 1
7485 1
7486 1
7487 1
7488 1
7489 1
7490 1
7491 1
7492 1
7493 1
7494 1
7495 1
7496 1
7497 30
7498 1
7499 1
7500 1
7501 1
7502 1
7503 1
7504 1
7505 1
7506 1
7507 1
7508 2
7509 1
7510 1
7511 10
7512 6
7513 3
7514 2
7515 1
7516 1
7517 1
7518 1
7519 1
7520 1
7521 50
7522 50
7523 40
7524 30
7525 20
7526 10
7527 1
7528 1
7529 100
7530 100
7531 1
7532 1
7533 1
7534 1
7535 1
7536 1
7537 1
7538 1
7539 1
7540 1
7541 1
7542 50
7543 20
7544 4
7545 6
7546 10
7547 5
7548 1
7549 1
7550 1
7551 1
7552 1
7553 1
7554 1
7555 1
7556 1
7557 1
7558 1
7559 1
7560 1
7561 1
7562 1
7563 1
7564 1
7565 1
7566 100
7567 100
7568 150
7569 150
7570 1
7571 1
7572 5
7573 5
7574 5
7575 5
7576 1
7577 1
7578 1
7579 1
7580 1
7581 1
7582 1
7583 1
7584 1
7585 1
7586 1
7587 1
7588 1
7589 1
7590 1
7591 1
7592 1
7593 1
7594 1
7595 1
7596 1
7597 1
7598 1
7599 1
7600 1
7601 1
7602 1
7603 1
7604 1
7605 1
7606 1
7607 1
7608 1
7609 1
7610 1
7611 1
7612 1
7613 1
7614 1
7615 1
7616 1
7617 1
7618 1
7619 1
7620 1
7621 1
7622 1
7623 1
7624 1
7625 1
7626 1
7627 1
7628 1
7629 1
7630 1
7631 1
7632 1
7633 1
7634 1
7635 1
7636 1
7637 1
7638 1
7639 1000
7640 1000
7641 1000
7642 1000
7643 1000
7644 1000
7645 1000
7646 1000
7647 1000
7648 1000
7649 100
7650 3000
7651 3000
7652 110
7653 110
7654 110
7655 110
7656 110
7657 110
7658 110
7659 110
7660 200
7661 200
7662 200
7663 200
7664 200
7665 200
7666 200
7667 200
7668 3000
7669 3000
7670 1
7671 0
7672 1
7673 0
7674 1
7675 1
7676 1
7677 1
7678 1
7679 1
7680 1
7681 1
7682 1
7683 1
7684 1
7685 1
7686 1
7687 1
7688 1
7689 1
7690 1
7691 1
7692 1
7693 1
7694 1
7695 1
7696 1
7697 1
7698 1
7699 1
7700 1
7701 1
7702 1
7703 1
7704 1
7705 1
7706 1
7707 1
7708 1
7709 1
7710 1
7711 1
7712 1
7713 1
7714 1
7715 1
7716 1
7717 1
7718 1
7719 1
7720 1
7721 1
7722 1
7723 1
7724 1
7725 1
7726 1
7727 1
7728 2
7729 2
7730 10
7731 10
7732 2
7733 10
7734 10
7735 2
7736 10
7737 10
7738 1
7739 1
7740 2
7741 2
7742 2
7743 2
7744 2
7745 2
7746 2
7747 2
7748 2
7749 2
7750 5
7751 5
7752 2
7753 2
7754 2
7755 2
7756 1
7757 1
7758 1
7759 10
7760 10
7761 10
7762 10
7763 10
7764 10
7765 10
7766 10
7767 10
7768 10
7769 10
7770 10
7771 10
7772 10
7773 1
7774 1
7775 1
7776 1
7777 1
7778 1
7779 5000
7780 5000
7781 5000
7782 5000
7783 5000
7784 5000
7785 5000
7786 5000
7787 5000
7788 5000
7789 5000
7790 5000
7791 5000
7792 5000
7793 5000
7794 5000
7795 5000
7796 5000
7797 5000
7798 5000
7799 5000
7800 1
7801 35
7802 35
7803 1
7804 625
7805 625
7806 26
7807 182
7808 18
7809 26
7810 1
7811 0
7812 1
7813 0
7814 1
7815 1
7816 0
7817 1
7818 1
7819 0
7820 1
7821 1
7822 0
7823 1
7824 1
7825 0
7826 1
7827 1
7828 0
7829 1
7830 1
7831 0
7832 1
7833 1
7834 0
7835 1
7836 1
7837 0
7838 1
7839 1
7840 0
7841 1
7842 1
7843 0
7844 1
7845 1
7846 0
7847 1
7848 1
7849 0
7850 1
7851 1
7852 0
7853 1
7854 1
7855 0
7856 1
7857 1
7858 0
7859 1
7860 1
7861 0
7862 1
7863 1
7864 0
7865 1
7866 1
7867 0
7868 1
7869 1
7870 0
7871 1
7872 1
7873 0
7874 1
7875 1
7876 0
7877 1
7878 1
7879 0
7880 1
7881 1
7882 0
7883 1
7884 1
7885 0
7886 1
7887 1
7888 0
7889 1
7890 1
7891 0
7892 1
7893 1
7894 0
7895 1
7896 1
7897 0
7898 1
7899 1
7900 0
7901 1
7902 1
7903 0
7904 1
7905 1
7906 0
7907 1
7908 1
7909 0
7910 1
7911 1
7912 0
7913 1
7914 1
7915 0
7916 1
7917 1
7918 1
7919 500
7920 500
7921 1
7922 1
7923 1
7924 1
7925 1
7926 1
7927 1
7928 1
7929 1
7930 1
7931 1
7932 1
7933 1
7934 300
7935 300
7936 4
7937 4
7938 4
7939 1000
7940 1000
7941 30
7942 10
7943 10
7944 230
7945 230
7946 230
7947 230
7948 3
7949 3
7950 30
7951 1
7952 1
7953 1
7954 1
7955 1
7956 50
7957 1
7958 10
7959 10
7960 10
7961 10
7962 10
7963 10
7964 10
7965 10
7966 10
7967 5
7968 10
7969 5
7970 5
7971 5
7972 5
7973 5
7974 10
7975 1000
7976 2000
7977 4000
7978 6000
7979 12000
7980 50000
7981 50000
7982 1000
7983 2000
7984 4000
7985 6000
7986 12000
7987 50000
7988 50000
7989 1000
7990 1000
7991 2500
7992 2500
7993 5000
7994 5000
7995 1000
7996 1000
7997 1000
7998 1000
7999 2000
8000 2000
8001 2000
8002 2000
8003 2000
8004 1000
8005 1000
8006 1000
8007 1
8008 1
8009 1
8010 1
8011 1
8012 1
8013 1
8014 1
8015 1
8016 1
8017 1
8018 1
8019 1
8020 1
8021 1
8022 1
8023 1
8024 1
8025 1
8026 1
8027 1
8028 1
8029 1
8030 1
8031 1
8032 1
8033 1
8034 1
8035 1
8036 1
8037 1
8038 1
8039 1
8040 1
8041 1
8042 1
8043 1
8044 1
8045 1
8046 1
8047 1
8048 1
8049 1
8050 1
8051 1
8052 1
8053 1
8054 1
8055 1
8056 1
8057 1
8058 1
8059 1
8060 1
8061 1
8062 1
8063 1
8064 1
8065 1
8066 1
8067 1
8068 1
8069 1
8070 1
8071 1
8072 1
8073 1
8074 1
8075 1
8076 1
8077 1
8078 1
8079 1
8080 1
8081 1
8082 1
8083 1
8084 1
8085 1
8086 1
8087 1
8088 1
8089 1
8090 1
8091 1
8092 1
8093 1
8094 1
8095 1
8096 1
8097 1
8098 1
8099 1
8100 1
8101 1
8102 1
8103 1
8104 1
8105 1
8106 1
8107 1
8108 1
8109 1
8110 1
8111 1
8112 1
8113 1
8114 1
8115 1
8116 1
8117 1
8118 1
8119 1
8120 1
8121 1
8122 1
8123 1
8124 1
8125 1
8126 1
8127 1
8128 1
8129 1
8130 1
8131 1
8132 1
8133 1
8134 1
8135 1
8136 1
8137 1
8138 1
8139 1
8140 1
8141 1
8142 1
8143 1
8144 1
8145 1
8146 1
8147 1
8148 1
8149 1
8150 1
8151 1
8152 1
8153 1
8154 1
8155 1
8156 1
8157 1
8158 1
8159 1
8160 1
8161 1
8162 1
8163 1
8164 1
8165 1
8166 1
8167 1
8168 1
8169 1
8170 1
8171 1
8172 1
8173 1
8174 1
8175 1
8176 1
8177 1
8178 1
8179 1
8180 1
8181 1
8182 1
8183 1
8184 1
8185 1
8186 1
8187 1
8188 1
8189 1
8190 1
8191 1
8192 1
8193 1
8194 1
8195 1
8196 1
8197 1
8198 1
8199 1
8200 1
8201 1
8202 1
8203 1
8204 1
8205 1
8206 1
8207 1
8208 1
8209 1
8210 1
8211 1
8212 1
8213 1
8214 1
8215 1
8216 1
8217 1
8218 1
8219 1
8220 1
8221 1
8222 1
8223 1
8224 1
8225 1
8226 1
8227 1
8228 1
8229 1
8230 1
8231 1
8232 1
8233 1
8234 1
8235 1
8236 1
8237 1
8238 1
8239 1
8240 1
8241 1
8242 1
8243 1
8244 1
8245 1
8246 1
8247 1
8248 1
8249 1
8250 1
8251 1
8252 1
8253 1
8254 1
8255 1
8256 1
8257 1
8258 1
8259 1
8260 1
8261 1
8262 1
8263 1
8264 1
8265 1
8266 1
8267 1
8268 1
8269 1
8270 1
8271 1
8272 1
8273 1
8274 1
8275 1
8276 1
8277 1
8278 1
8279 1
8280 1
8281 1
8282 1
8283 1
8284 1
8285 1
8286 1
8287 1
8288 1
8289 1
8290 1
8291 1
8292 1
8293 1
8294 1
8295 1
8296 1
8297 1
8298 1
8299 1
8300 1
8301 1
8302 1
8303 1
8304 1
8305 1
8306 1
8307 1
8308 1
8309 1
8310 1
8311 1
8312 1
8313 1
8314 1
8315 1
8316 1
8317 1
8318 1
8319 1
8320 1
8321 1
8322 1
8323 1
8324 1
8325 1
8326 1
8327 1
8328 1
8329 1
8330 1
8331 1
8332 1
8333 1
8334 1
8335 1
8336 1
8337 1
8338 1
8339 1
8340 1
8341 1
8342 1
8343 1
8344 1
8345 1
8346 1
8347 1
8348 1
8349 1
8350 1
8351 1
8352 1
8353 1
8354 1
8355 1
8356 1
8357 1
8358 1
8359 1
8360 1
8361 1
8362 1
8363 1
8364 1
8365 1
8366 1
8367 1
8368 1
8369 1
8370 1
8371 1
8372 1
8373 1
8374 1
8375 1
8376 1
8377 1
8378 1
8379 1
8380 1
8381 1
8382 1
8383 1
8384 1
8385 1
8386 1
8387 1
8388 1
8389 1
8390 1
8391 1
8392 1
8393 1
8394 1
8395 1000
8396 5000
8397 5000
8398 10000
8399 25000
8400 25000
8401 15000
8402 15000
8403 25000
8404 25000
8405 50000
8406 10000
8407 50000
8408 100000
8409 150000
8410 150000
8411 7500
8412 7500
8413 7500
8414 250000
8415 1000
8416 75000
8417 1000
8418 1000
8419 2000
8420 2000
8421 5000
8422 5000
8423 10000
8424 10000
8425 15000
8426 15000
8427 20000
8428 20000
8429 50000
8430 50000
8431 1000
8432 1000
8433 5000
8434 5000
8435 10000
8436 10000
8437 5000
8438 5000
8439 10000
8440 10000
8441 15000
8442 15000
8443 20000
8444 20000
8445 25000
8446 25000
8447 50000
8448 50000
8449 100000
8450 100000
8451 5000
8452 5000
8453 10000
8454 10000
8455 15000
8456 15000
8457 5000
8458 5000
8459 10000
8460 10000
8461 15000
8462 15000
8463 1
8464 35200
8465 1
8466 35200
8467 1
8468 35200
8469 1
8470 35200
8471 1
8472 35200
8473 1
8474 35200
8475 1
8476 35200
8477 1
8478 35200
8479 1
8480 35200
8481 1
8482 35200
8483 1
8484 35200
8485 1
8486 35200
8487 1
8488 35200
8489 1
8490 35200
8491 1
8492 35200
8493 1
8494 35200
8495 1
8496 10
8497 10
8498 10
8499 10
8500 10
8501 10
8502 10
8503 10
8504 10
8505 10
8506 10
8507 10
8508 10
8509 10
8510 10
8511 10
8512 10
8513 10
8514 10
8515 10
8516 10
8517 10
8518 10
8519 10
8520 10
8521 10
8522 10
8523 10
8524 10
8525 10
8526 10
8527 10
8528 10
8529 10
8530 10
8531 10
8532 10
8533 10
8534 10
8535 10
8536 10
8537 10
8538 10
8539 10
8540 10
8541 10
8542 10
8543 10
8544 10
8545 10
8546 10
8547 10
8548 10
8549 10
8550 10
8551 10
8552 10
8553 10
8554 10
8555 10
8556 10
8557 10
8558 10
8559 10
8560 10
8561 10
8562 10
8563 10
8564 10
8565 10
8566 10
8567 10
8568 10
8569 10
8570 10
8571 10
8572 10
8573 10
8574 10
8575 10
8576 10
8577 10
8578 10
8579 10
8580 10
8581 10
8582 10
8583 10
8584 10
8585 10
8586 10
8587 10
8588 10
8589 10
8590 10
8591 10
8592 10
8593 10
8594 10
8595 10
8596 10
8597 10
8598 10
8599 10
8600 10
8601 10
8602 10
8603 10
8604 10
8605 10
8606 10
8607 10
8608 10
8609 10
8610 10
8611 10
8612 10
8613 10
8614 10
8615 10
8616 10
8617 10
8618 10
8619 10
8620 10
8621 10
8622 10
8623 10
8624 10
8625 10
8626 10
8627 10
8628 10
8629 10
8630 10
8631 10
8632 10
8633 10
8634 10
8635 10
8636 10
8637 10
8638 10
8639 10
8640 10
8641 10
8642 10
8643 10
8644 10
8645 10
8646 10
8647 10
8648 10
8649 10
8650 1
8651 1
8652 1
8653 1
8654 1
8655 1
8656 1
8657 1
8658 1
8659 1
8660 1
8661 1
8662 1
8663 1
8664 1
8665 1
8666 1
8667 1
8668 1
8669 1
8670 1
8671 1
8672 1
8673 1
8674 1
8675 1
8676 1
8677 1
8678 1
8679 1
8680 1
8681 1
8682 600
8683 1
8684 600
8685 1
8686 600
8687 1
8688 600
8689 1
8690 600
8691 1
8692 600
8693 1
8694 600
8695 1
8696 600
8697 1
8698 600
8699 1
8700 600
8701 1
8702 600
8703 1
8704 600
8705 1
8706 600
8707 1
8708 600
8709 1
8710 600
8711 1
8712 600
8713 1
8714 54400
8715 1
8716 54400
8717 1
8718 54400
8719 1
8720 54400
8721 1
8722 54400
8723 1
8724 54400
8725 1
8726 54400
8727 1
8728 54400
8729 1
8730 54400
8731 1
8732 54400
8733 1
8734 54400
8735 1
8736 54400
8737 1
8738 54400
8739 1
8740 54400
8741 1
8742 54400
8743 1
8744 54400
8745 1
8746 900
8747 1
8748 900
8749 1
8750 900
8751 1
8752 900
8753 1
8754 900
8755 1
8756 900
8757 1
8758 900
8759 1
8760 900
8761 1
8762 900
8763 1
8764 900
8765 1
8766 900
8767 1
8768 900
8769 1
8770 900
8771 1
8772 900
8773 1
8774 900
8775 1
8776 900
8777 1
8778 250
8779 250
8780 500
8781 500
8782 1500
8783 1500
8784 100000
8785 100000
8786 250000
8787 250000
8788 750000
8789 750000
8790 500
8791 500
8792 500
8793 500
8794 10
8795 10
8796 20
8797 20
8798 1
8799 1
8800 1
8801 1
8802 1
8803 1
8804 1
8805 1
8806 1
8807 1
8808 1
8809 1
8810 1
8811 1
8812 1
8813 1
8814 1
8815 1
8816 1
8817 1
8818 1
8819 1
8820 1
8821 1
8822 1
8823 1
8824 1
8825 1
8826 1
8827 1
8828 1
8829 1
8830 1
8831 1
8832 1
8833 1
8834 1
8835 1
8836 50
8837 1
8838 1
8839 48000
8840 45000
8841 12000
8842 6052
8843 1
8844 1
8845 1
8846 1
8847 1
8848 1
8849 1
8850 1
8851 1
8852 1
8853 1
8854 1
8855 1
8856 1
8857 1
8858 1
8859 1
8860 1
8861 1
8862 1
8863 1
8864 1
8865 2
8866 1
8867 1
8868 1
8869 1
8870 1
8871 1
8872 2000
8873 2000
8874 2000
8875 2000
8876 2000
8877 2000
8878 2000
8879 2000
8880 2000
8881 2000
8882 3
8883 1
8884 1
8885 1
8886 1
8887 1
8888 1
8889 1
8890 1
8891 1
8892 1
8893 1
8894 1
8895 1
8896 1
8897 1
8898 1
8899 1
8900 1
8901 3000
8902 3000
8903 3000
8904 3000
8905 3000
8906 3000
8907 3000
8908 3000
8909 3000
8910 3000
8911 3000
8912 3000
8913 3000
8914 3000
8915 3000
8916 3000
8917 3000
8918 3000
8919 3000
8920 3000
8921 3000
8922 3000
8923 900
8924 100
8925 100
8926 100
8927 100
8928 100
8929 100
8930 1
8931 1
8932 1
8933 1
8934 1
8935 1
8936 1
8937 1
8938 1
8939 1
8940 2
8941 2
8942 1
8943 1
8944 1
8945 1
8946 1
8947 1
8948 1
8949 1
8950 1
8951 1
8952 100
8953 100
8954 100
8955 100
8956 100
8957 100
8958 100
8959 50
8960 50
8961 50
8962 50
8963 50
8964 50
8965 50
8966 200
8967 200
8968 300
8969 400
8970 500
8971 600
8972 1
8973 1
8974 1
8975 1
8976 1
8977 1
8978 1
8979 1
8980 1
8981 1
8982 1
8983 1
8984 1
8985 1
8986 1
8987 1
8988 5
8989 1
8990 1
8991 100
8992 100
8993 100
8994 100
8995 100
8996 100
8997 100
8998 100
8999 100
9000 100
9001 100
9002 100
9003 2
9004 2
9005 1
9006 1
9007 1
9008 1
9009 1
9010 1
9011 1
9012 1
9013 1
9014 2
9015 2
9016 150
9017 75
9018 150
9019 75
9020 1
9021 280
9022 230
9023 180
9024 130
9025 1
9026 10
9027 10
9028 30
9029 30
9030 20
9031 20
9032 10
9033 10
9034 30
9035 30
9036 10
9037 10
9038 20
9039 20
9040 30
9041 30
9042 20
9043 20
9044 100
9045 100
9046 100
9047 100
9048 100
9049 100
9050 100
9051 100
9052 1
9053 1
9054 40
9055 40
9056 40
9057 40
9058 40
9059 40
9060 1
9061 1
9062 1
9063 1
9064 20
9065 20
9066 10
9067 4
9068 1000
9069 1000
9070 1000
9071 1000
9072 900
9073 900
9074 200
9075 50
9076 3
9077 8
9078 1
9079 20
9080 60
9081 60
9082 20
9083 1
9084 1
9085 1
9086 1
9087 1
9088 1
9089 1
9090 1
9091 15
9092 15
9093 15
9094 1
9095 1
9096 100
9097 100
9098 100
9099 100
9100 100
9101 2
9102 30
9103 30
9104 100
9105 1
9106 100
9107 1
9108 1
9109 1
9110 1
9111 1
9112 1
9113 1
9114 1
9115 1
9116 1
9117 1
9118 1
9119 1
9120 1
9121 1
9122 1
9123 1
9124 1
9125 1
9126 1
9127 1
9128 1
9129 1
9130 1
9131 1
9132 1
9133 1
9134 1
9135 1
9136 1
9137 1
9138 1
9139 2
9140 2
9141 8
9142 20
9143 58
9144 300
9145 5
9146 1
9147 1
9148 1
9149 1
9150 1
9151 1
9152 1
9153 1
9154 1
9155 1
9156 1
9157 1
9158 1
9159 1
9160 1
9161 1
9162 1
9163 1
9164 1
9165 1
9166 1
9167 1
9168 1
9169 1
9170 1
9171 1
9172 1
9173 1
9174 73
9175 73
9176 93
9177 157
9178 157
9179 360
9180 360
9181 783
9182 783
9183 1767
9184 1767
9185 25000
9186 16200
9187 10
9188 13
9189 17
9190 33
9191 67
9192 133
9193 667
9194 1000
9195 1
9196 1
9197 1
9198 1
9199 1
9200 1
9201 1
9202 1
9203 1
9204 1
9205 1
9206 1
9207 1
9208 1
9209 1
9210 1
9211 1
9212 1
9213 1
9214 1
9215 1
9216 1
9217 1
9218 1
9219 1
9220 1
9221 1
9222 1
9223 1
9224 1
9225 1
9226 1
9227 1
9228 1
9229 1
9230 1
9231 1
9232 1
9233 1
9234 1
9235 1
9236 7
9237 13
9238 15
9239 24
9240 40
9241 59
9242 138
9243 211
9244 1063
9245 15000
9246 1
9247 1
9248 1
9249 1
9250 1
9251 1
9252 1
9253 1
9254 1
9255 1
9256 1
9257 1
9258 1
9259 1
9260 1
9261 1
9262 1
9263 1
9264 1
9265 1
9266 1
9267 1
9268 1
9269 1
9270 1
9271 1
9272 1
9273 1
9274 1
9275 1
9276 1
9277 1
9278 1
9279 1
9280 1
9281 1
9282 1
9283 1
9284 1
9285 1
9286 2
9287 2
9288 8
9289 20
9290 58
9291 300
9292 5
9293 2
9294 2
9295 8
9296 20
9297 58
9298 300
9299 5
9300 2
9301 2
9302 8
9303 20
9304 58
9305 300
9306 5
9307 1
9308 1
9309 1
9310 1
9311 1
9312 1
9313 1
9314 1
9315 1
9316 1
9317 1
9318 1
9319 1
9320 1
9321 1
9322 1
9323 1
9324 1
9325 1
9326 1
9327 1
9328 1
9329 1
9330 1
9331 1
9332 1
9333 1
9334 1
9335 12
9336 22
9337 37
9338 53
9339 125
9340 192
9341 967
9342 13633
9343 1
9344 1
9345 1
9346 1
9347 1
9348 1
9349 1
9350 1
9351 1
9352 1
9353 1
9354 1
9355 1
9356 1
9357 1
9358 1
9359 1
9360 1
9361 1
9362 1
9363 1
9364 1
9365 1
9366 1
9367 1
9368 1
9369 1
9370 1
9371 1
9372 1
9373 1
9374 1
9375 1
9376 1
9377 1
9378 1
9379 1
9380 1
9381 1
9382 1
9383 1
9384 1
9385 1
9386 1
9387 1
9388 1
9389 1
9390 1
9391 1
9392 1
9393 1
9394 1
9395 1
9396 1
9397 1
9398 1
9399 1
9400 1
9401 1
9402 1
9403 1
9404 1
9405 1
9406 1
9407 1
9408 1
9409 1
9410 1
9411 1
9412 1
9413 1
9414 1
9415 1
9416 30
9417 30
9418 48
9419 1
9420 20
9421 20
9422 33
9423 70
9424 70
9425 250
9426 250
9427 650
9428 650
9429 1600
9430 1600
9431 16000
9432 16000
9433 5000
9434 25
9435 25
9436 2
9437 2
9438 1
9439 1
9440 20
9441 20
9442 27
9443 27
9444 53
9445 53
9446 77
9447 77
9448 100
9449 100
9450 133
9451 133
9452 167
9453 167
9454 40
9455 40
9456 60
9457 123
9458 123
9459 327
9460 327
9461 750
9462 750
9463 1733
9464 1733
9465 16167
9466 16167
9467 18
9468 1
9469 250
9470 1000
9471 1000
9472 1000
9473 1000
9474 250
9475 250
9476 250
9477 1
9478 2
9479 2
9480 2
9481 2
9482 2
9483 2
9484 2
9485 2
9486 2
9487 1
9488 1
9489 1
9490 1
9491 1
9492 1
9493 1
9494 1
9495 1
9496 1
9497 1
9498 1
9499 1
9500 1
9501 1
9502 1
9503 1
9504 1
9505 1
9506 1
9507 1
9508 1
9509 1
9510 1
9511 1
9512 1
9513 1
9514 1
9515 1
9516 1
9517 1
9518 1
9519 1
9520 1
9521 1
9522 1
9523 1
9524 1
9525 1
9526 1
9527 1
9528 1
9529 1
9530 1
9531 1
9532 1
9533 1
9534 1
9535 1
9536 1
9537 1
9538 1
9539 1
9540 1
9541 1
9542 1
9543 1
9544 1
9545 1
9546 1
9547 1
9548 1
9549 1
9550 1
9551 1
9552 1
9553 1
9554 1
9555 1
9556 1
9557 1
9558 2
9559 2
9560 2
9561 2
9562 2
9563 2
9564 2
9565 2
9566 2
9567 2
9568 2
9569 2
9570 2
9571 2
9572 2
9573 2
9574 2
9575 2
9576 2
9577 2
9578 2
9579 2
9580 2
9581 2
9582 2
9583 2
9584 2
9585 10
9586 10
9587 10
9588 2
9589 1
9590 1
9591 1
9592 1
9593 1
9594 1
9595 1
9596 10
9597 1
9598 1
9599 1
9600 1
9601 1
9602 1
9603 1
9604 1
9605 1
9606 1
9607 1
9608 1
9609 1
9610 1
9611 1
9612 1
9613 1
9614 1
9615 1
9616 1
9617 1
9618 1
9619 1
9620 1
9621 1
9622 1
9623 1
9624 1
9625 10
9626 10000
9627 2
9628 1
9629 550
9630 550
9631 2
9632 100
9633 1
9634 500
9635 500
9636 500
9637 500
9638 500
9639 500
9640 5
9641 5
9642 5
9643 5
9644 5
9645 5
9646 1
9647 1
9648 1
9649 1
9650 1
9651 1
9652 1
9653 1
9654 1
9655 1
9656 1
9657 1
9658 1
9659 1
9660 1
9661 1
9662 1
9663 1
9664 1
9665 1
9666 25000
9667 25000
9668 20000
9669 20000
9670 25000
9671 25000
9672 8000
9673 8000
9674 12000
9675 12000
9676 10000
9677 10000
9678 10000
9679 10000
9680 1
9681 1
9682 1
9683 0
9684 1
9685 1
9686 1
9687 1
9688 1
9689 1
9690 1
9691 1
9692 1
9693 1
9694 1
9695 1
9696 1
9697 1
9698 1
9699 1
9700 1
9701 1
9702 1
9703 1
9704 1
9705 1
9706 1
9707 1
9708 1
9709 1
9710 1
9711 1
9712 1
9713 1
9714 1
9715 10
9716 1
9717 1
9718 1
9719 1
9720 1
9721 1
9722 1
9723 1
9724 1
9725 1
9726 1
9727 1
9728 1
9729 20
9730 20
9731 3000
9732 3000
9733 3000
9734 3000
9735 12
9736 12
9737 12
9738 12
9739 215
9740 215
9741 160
9742 160
9743 105
9744 105
9745 52
9746 52
9747 99000
9748 99000
9749 1
9750 99000
9751 99000
9752 1
9753 99000
9754 99000
9755 1
9756 99000
9757 99000
9758 1
9759 99000
9760 99000
9761 1
9762 99000
9763 99000
9764 1
9765 99000
9766 99000
9767 1
9768 99000
9769 99000
9770 1
9771 99000
9772 99000
9773 1
9774 99000
9775 99000
9776 1
9777 99000
9778 99000
9779 1
9780 99000
9781 99000
9782 1
9783 99000
9784 99000
9785 1
9786 99000
9787 99000
9788 1
9789 99000
9790 99000
9791 1
9792 99000
9793 99000
9794 1
9795 99000
9796 99000
9797 1
9798 99000
9799 99000
9800 1
9801 99000
9802 99000
9803 1
9804 99000
9805 99000
9806 1
9807 99000
9808 99000
9809 1
9810 99000
9811 99000
9812 1
9813 99000
9814 1
9815 1
9816 1
9817 1
9818 1
9819 1
9820 1
9821 1
9822 1
9823 1
9824 1
9825 1
9826 1
9827 1
9828 1
9829 1
9830 1
9831 1
9832 1
9833 1
9834 1
9835 1
9836 1
9837 1
9838 1
9839 1
9840 1
9841 1
9842 50000
9843 10
9844 10
9845 10
9846 10
9847 10
9848 10
9849 10
9850 10
9851 10
9852 10
9853 10
9854 10
9855 10
9856 10
9857 10
9858 10
9859 10
9860 10
9861 10
9862 10
9863 10
9864 10
9865 10
9866 10
9867 10
9868 10
9869 10
9870 10
9871 10
9872 10
9873 10
9874 10
9875 10
9876 10
9877 10
9878 10
9879 10
9880 10
9881 10
9882 10
9883 10
9884 10
9885 10
9886 10
9887 10
9888 10
9889 10
9890 10
9891 10
9892 10
9893 1
9894 1
9895 1
9896 1
9897 1
9898 1
9899 1
9900 1
9901 5
9902 5
9903 20
9904 1
9905 1
9906 1
9907 1
9908 1
9909 1
9910 1
9911 1
9912 1
9913 1
9914 1
9915 1
9916 1
9917 1
9918 1
9919 1
9920 1
9921 1
9922 1
9923 1
9924 1
9925 1
9926 3
9927 3
9928 3
9929 3
9930 3
9931 3
9932 1
9933 1
9934 1
9935 1
9936 1
9937 1
9938 1
9939 1
9940 1
9941 1
9942 1
9943 1
9944 1
9945 1
9946 1
9947 1
9948 99000
9949 99000
9950 1
9951 1
9952 1
9953 1
9954 1
9955 1
9956 1
9957 1
9958 1
9959 1
9960 1
9961 1
9962 1
9963 1
9964 1
9965 1
9966 1
9967 1
9968 1
9969 1
9970 1
9971 1
9972 1
9973 1
9974 1
9975 1
9976 1
9977 1
9978 17
9979 17
9980 17
9981 17
9982 1
9983 1
9984 81
9985 81
9986 25
9987 25
9988 25
9989 25
9990 1
9991 1
9992 89
9993 89
9994 3
9995 3
9996 8
9997 8
9998 15
9999 15
10000 12
10001 12
10002 9
10003 9
10004 6
10005 6
10006 5
10007 5
10008 32
10009 32
10010 20
10011 20
10012 1
10013 1
10014 70
10015 70
10016 50
10017 50
10018 30
10019 30
10020 18
10021 18
10022 1
10023 1
10024 1
10025 600
10026 600
10027 600
10028 600
10029 50
10030 50
10031 15
10032 15
10033 140
10034 160
10035 200
10036 200
10037 200
10038 200
10039 1000
10040 1000
10041 100
10042 100
10043 100
10044 100
10045 500
10046 500
10047 150
10048 150
10049 150
10050 150
10051 750
10052 750
10053 20
10054 20
10055 20
10056 20
10057 20
10058 20
10059 20
10060 20
10061 20
10062 20
10063 20
10064 20
10065 20
10066 20
10067 20
10068 20
10069 400
10070 400
10071 800
10072 800
10073 400
10074 800
10075 600
10076 600
10077 160
10078 160
10079 2500
10080 2500
10081 3000
10082 3000
10083 3600
10084 3600
10085 4320
10086 4320
10087 20
10088 10
10089 16
10090 13
10091 15
10092 40
10093 60
10094 60
10095 80
10096 80
10097 90
10098 90
10099 120
10100 120
10101 120
10102 120
10103 160
10104 160
10105 90
10106 90
10107 150
10108 150
10109 160
10110 160
10111 160
10112 160
10113 43
10114 43
10115 210
10116 210
10117 10
10118 10
10119 14
10120 14
10121 12
10122 12
10123 17
10124 17
10125 150
10126 150
10127 270
10128 270
10129 36
10130 36
10131 1
10132 30
10133 30
10134 30
10135 30
10136 120
10137 120
10138 120
10139 120
10140 1
10141 1
10142 3
10143 1
10144 1
10145 1
10146 100
10147 150
10148 200
10149 50
10150 4
10151 4
10152 1
10153 1
10154 1
10155 1
10156 1300
10157 1300
10158 18
10159 31
10160 100
10161 150
10162 200
10163 50
10164 1
10165 1
10166 1
10167 1
10168 1
10169 1
10170 1
10171 1
10172 1
10173 1
10174 1
10175 1
10176 1
10177 1
10178 1
10179 1
10180 1
10181 50
10182 1
10183 50
10184 1
10185 50
10186 1
10187 50
10188 1
10189 50
10190 1
10191 50
10192 1
10193 50
10194 1
10195 50
10196 1
10197 50
10198 1
10199 50
10200 1
10201 50
10202 1
10203 50
10204 1
10205 50
10206 1
10207 50
10208 1
10209 50
10210 1
10211 50
10212 1
10213 50
10214 1
10215 50
10216 1
10217 50
10218 1
10219 50
10220 1
10221 50
10222 1
10223 50
10224 1
10225 50
10226 1
10227 50
10228 1
10229 50
10230 1
10231 50
10232 1
10233 50
10234 1
10235 50
10236 1
10237 50
10238 1
10239 50
10240 1
10241 50
10242 1
10243 50
10244 1
10245 50
10246 1
10247 50
10248 1
10249 50
10250 1
10251 50
10252 1
10253 50
10254 1
10255 50
10256 1
10257 50
10258 1
10259 50
10260 1
10261 50
10262 1
10263 50
10264 1
10265 50
10266 1
10267 50
10268 1
10269 50
10270 1
10271 50
10272 1
10273 50
10274 1
10275 50
10276 1
10277 50
10278 1
10279 50
10280 300
10281 300
10282 1800
10283 1800
10284 2500
10285 2500
10286 35200
10287 35200
10288 35200
10289 35200
10290 35200
10291 35200
10292 35200
10293 35200
10294 35200
10295 35200
10296 3520
10297 3520
10298 3520
10299 3520
10300 3520
10301 3520
10302 3520
10303 3520
10304 3520
10305 3520
10306 1056
10307 1056
10308 1056
10309 1056
10310 1056
10311 1056
10312 1056
10313 1056
10314 1056
10315 1056
10316 3
10317 3
10318 3
10319 3
10320 3
10321 3
10322 3
10323 3
10324 3
10325 3
10326 15
10327 15
10328 1
10329 1
10330 45000
10331 45000
10332 40000
10333 40000
10334 10000
10335 10000
10336 15000
10337 15000
10338 45000
10339 45000
10340 40000
10341 40000
10342 10000
10343 10000
10344 20000
10345 20000
10346 200000
10347 200000
10348 200000
10349 200000
10350 90000
10351 90000
10352 180000
10353 180000
10354 17625
10355 17625
10356 17625
10357 17625
10358 17625
10359 17625
10360 17625
10361 17625
10362 17625
10363 17625
10364 2025
10365 2025
10366 900
10367 900
10368 4000
10369 4000
10370 13000
10371 13000
10372 6000
10373 6000
10374 2000
10375 2000
10376 6000
10377 6000
10378 13000
10379 13000
10380 6000
10381 6000
10382 2000
10383 2000
10384 4000
10385 4000
10386 13000
10387 13000
10388 6000
10389 6000
10390 2000
10391 2000
10392 2000
10393 2000
10394 2000
10395 2000
10396 2000
10397 2000
10398 2000
10399 2000
10400 2000
10401 2000
10402 2000
10403 2000
10404 2000
10405 2000
10406 2000
10407 2000
10408 2000
10409 2000
10410 2000
10411 2000
10412 2000
10413 2000
10414 2000
10415 2000
10416 2000
10417 2000
10418 2000
10419 2000
10420 2000
10421 2000
10422 2000
10423 2000
10424 2000
10425 2000
10426 2000
10427 2000
10428 2000
10429 2000
10430 2000
10431 2000
10432 2000
10433 2000
10434 2000
10435 2000
10436 2000
10437 2000
10438 2000
10439 2000
10440 5000
10441 5000
10442 5000
10443 5000
10444 5000
10445 5000
10446 2000
10447 2000
10448 2000
10449 2000
10450 2000
10451 2000
10452 5000
10453 5000
10454 5000
10455 5000
10456 5000
10457 5000
10458 7000
10459 7000
10460 7000
10461 7000
10462 7000
10463 7000
10464 7000
10465 7000
10466 7000
10467 7000
10468 7000
10469 7000
10470 2500
10471 2500
10472 2500
10473 2500
10474 2500
10475 2500
10476 15
10477 1
10478 1
10479 1
10480 1
10481 1
10482 1
10483 1
10484 1
10485 1
10486 1
10487 100
10488 10
10489 15
10490 1
10491 20
10492 1
10493 2
10494 10
10495 10
10496 1
10497 1
10498 769
10499 1000
10500 20
10501 0
10502 1
10503 1
10504 1
10505 1
10506 1
10507 1
10508 1
10509 1
10510 1
10511 1
10512 1
10513 1
10514 1
10515 1
10516 1
10517 1
10518 1
10519 1
10520 1
10521 1
10522 1
10523 1
10524 1
10525 1
10526 1
10527 1
10528 1
10529 1
10530 1
10531 1
10532 1
10533 1
10534 1
10535 1
10536 1
10537 1
10538 1
10539 1
10540 1
10541 1
10542 1
10543 1
10544 1
10545 1
10546 1
10547 5000
10548 5000
10549 5000
10550 5000
10551 20000
10552 5000
10553 200
10554 200
10555 8000
10556 1
10557 1
10558 1
10559 1
10560 1
10561 1
10562 1
10563 1
10564 80000
10565 80000
10566 60000
10567 1
10568 1
10569 1
10570 1
10571 1
10572 1
10573 1
10574 1
10575 1
10576 1
10577 1
10578 1
10579 1
10580 1
10581 10000
10582 10000
10583 10000
10584 10000
10585 1
10586 1
10587 50
10588 300
10589 46000
10590 46000
10591 1
10592 1
10593 1
10594 1
10595 1
10596 1
10597 1
10598 1
10599 1
10600 1
10601 15000
10602 15000
10603 15000
10604 10000
10605 140000
10606 10000
10607 300
10608 1000
10609 100
10610 2000
10611 48000
10612 375
10613 35200
10614 60000
10615 500
10616 500
10617 500
10618 3840
10619 10000
10620 12000
10621 150
10622 200
10623 100
10624 150
10625 20
10626 20
10627 20
10628 20
10629 1
10630 0
10631 1
10632 1
10633 1
10634 40
10635 450
10636 60000
10637 60000
10638 50
10639 99000
10640 99000
10641 99000
10642 99000
10643 99000
10644 99000
10645 99000
10646 99000
10647 99000
10648 99000
10649 99000
10650 99000
10651 99000
10652 99000
10653 99000
10654 99000
10655 99000
10656 99000
10657 99000
10658 99000
10659 99000
10660 99000
10661 99000
10662 99000
10663 400
10664 800
10665 1632
10666 5440
10667 54400
10668 16325
10669 5440
10670 54400
10671 1632
10672 5440
10673 54400
10674 1632
10675 5440
10676 54400
10677 1632
10678 5440
10679 54400
10680 850
10681 850
10682 7800
10683 7800
10684 9360
10685 9360
10686 15
10687 15
10688 120000
10689 200
10690 3840
10691 3840
10692 40
10693 80
10694 80
10695 80
10696 200
10697 12800
10698 12800
10699 1056
10700 1056
10701 1056
10702 1056
10703 1056
10704 35200
10705 35200
10706 35200
10707 35200
10708 35200
10709 3520
10710 3520
10711 3520
10712 3520
10713 3520
10714 3
10715 3
10716 3
10717 3
10718 3
10719 17625
10720 100
10721 0
10722 1
10723 1
10724 1
10725 1
10726 1
10727 1
10728 1
10729 1
10730 1
10731 0
10732 0
10733 10
10734 1
10735 1
10736 2025
10737 2025
10738 900
10739 900
10740 2000
10741 2000
10742 2000
10743 2000
10744 2000
10745 2000
10746 2000
10747 2000
10748 2000
10749 2000
10750 2000
10751 2000
10752 2000
10753 2000
10754 2000
10755 2000
10756 2000
10757 2000
10758 225
10759 225
10760 225
10761 225
10762 225
10763 225
10764 225
10765 225
10766 225
10767 225
10768 40
10769 40
10770 40
10771 40
10772 40
10773 40
10774 180
10775 180
10776 65000
10777 65000
10778 65000
10779 65000
10780 65000
10781 65000
10782 65000
10783 65000
10784 7000
10785 7000
10786 7000
10787 7000
10788 7000
10789 7000
10790 13000
10791 13000
10792 13000
10793 13000
10794 13000
10795 13000
10796 450
10797 450
10798 65000
10799 65000
10800 65000
10801 65000
10802 200
10803 200
10804 200
10805 200
10806 200
10807 200
10808 200
10809 200
10810 35
10811 35
10812 90
10813 90
10814 2
10815 2
10816 2
10817 2
10818 50
10819 50
10820 100
10821 100
10822 500
10823 500
10824 500
10825 500
10826 500
10827 500
10828 50000
10829 1
10830 1
10831 1
10832 1
10833 1
10834 1
10835 1
10836 100
10837 100
10838 100
10839 100
10840 1000
10841 1
10842 1
10843 50000
10844 1
10845 1
10846 1
10847 1
10848 1
10849 1
10850 1
10851 1
10852 1
10853 1
10854 1
10855 1
10856 5
10857 0
10858 0
10859 1
10860 1
10861 1
10862 100
10863 100
10864 100
10865 100
10866 0
10867 1
10868 1
10869 1
10870 1
10871 1
10872 1
10873 1
10874 1
10875 1
10876 1
10877 100
10878 100
10879 100
10880 100
10881 100
10882 100
10883 100
10884 52
10885 1
10886 1
10887 230000
10888 1
10889 1
10890 1
10891 1
10892 1
10893 1
10894 1
10895 1
10896 1
10897 1
10898 1
10899 0
10900 1
10901 1
10902 1
10903 1
10904 0
10905 1
10906 1
10907 1
10908 1
10909 300
10910 300
10911 240
10912 240
10913 180
10914 180
10915 120
10916 120
10917 300
10918 300
10919 240
10920 240
10921 180
10922 180
10923 120
10924 120
10925 300
10926 300
10927 240
10928 240
10929 180
10930 180
10931 120
10932 120
10933 50
10934 1
10935 1
10936 1
10937 300
10938 300
10939 50
10940 50
10941 50
10942 1
10943 1
10944 1
10945 50
10946 1
10947 1
10948 1
10949 1
10950 0
10951 0
10952 150
10953 150
10954 1000
10955 1000
10956 900
10957 900
10958 200
10959 200
10960 10
10961 10
10962 10
10963 10
10964 10
10965 10
10966 50
10967 50
10968 50
10969 50
10970 50
10971 50
10972 20
10973 350
10974 350
10975 0
10976 5
10977 7
10978 2
10979 2
10980 250
10981 20
10982 20
10983 0
10984 0
10985 0
10986 0
10987 0
10988 0
10989 0
10990 0
10991 0
10992 0
10993 0
10994 0
10995 1000
10996 1000
10997 1
10998 1
10999 1
11000 1
11001 10
11002 10
11003 5
11004 1
11005 1
11006 10
11007 10
11008 1
11009 1
11010 1
11011 1
11012 1
11013 1
11014 0
11015 1
11016 1
11017 1
11018 1
11019 1
11020 1
11021 1
11022 1
11023 1
11024 1
11025 1
11026 1
11027 1
11028 1
11029 1
11030 1
11031 0
11032 0
11033 0
11034 0
11035 0
11036 1
11037 26000
11038 26000
11039 0
11040 0
11041 0
11042 0
11043 0
11044 0
11045 0
11046 0
11047 1
11048 1
11049 1
11050 1
11051 1
11052 1
11053 1
11054 1
11055 1
11056 1
11057 1
11058 1
11059 1
11060 20
11061 1000
11062 1
11063 1
11064 1000
11065 5
11066 5
11067 1
11068 1
11069 550
11070 550
11071 1
11072 1150
11073 1150
11074 1265
11075 1265
11076 1525
11077 1525
11078 1
11079 1675
11080 1675
11081 1675
11082 1675
11083 1675
11084 1675
11085 2325
11086 2325
11087 1
11088 2560
11089 2560
11090 4050
11091 4050
11092 3825
11093 3825
11094 1
11095 4200
11096 4200
11097 4200
11098 4200
11099 4200
11100 4200
11101 4200
11102 4200
11103 4200
11104 4200
11105 20200
11106 20200
11107 20200
11108 20200
11109 20200
11110 20200
11111 20200
11112 20200
11113 20200
11114 20200
11115 19125
11116 19125
11117 1
11118 21040
11119 21040
11120 21040
11121 21040
11122 21040
11123 21040
11124 21040
11125 21040
11126 21040
11127 21040
11128 202000
11129 202000
11130 201000
11131 201000
11132 1
11133 202000
11134 202000
11135 1
11136 0
11137 1
11138 0
11139 1
11140 0
11141 1
11142 1
11143 1
11144 1
11145 1
11146 1
11147 1
11148 1
11149 1
11150 1
11151 1
11152 1
11153 1
11154 1
11155 20
11156 1
11157 1
11158 1
11159 1
11160 1
11161 1
11162 1
11163 1
11164 1
11165 4
11166 4
11167 4
11168 4
11169 1
11170 1
11171 1
11172 1
11173 1
11174 1
11175 1
11176 1
11177 1
11178 1
11179 1
11180 1
11181 1
11182 1
11183 1
11184 0
11185 1
11186 1
11187 1
11188 1
11189 1
11190 2400
11191 2400
11192 2400
11193 2400
11194 2400
11195 0
11196 1
11197 1
11198 1
11199 1
11200 60000
11201 60000
11202 1
11203 1
11204 1
11205 2
11206 1
11207 1
11208 1
11209 1
11210 1
11211 1
11212 800
11213 1
11214 1
11215 1
11216 1
11217 3
11218 1
11219 1
11220 1
11221 1
11222 10
11223 1
11224 1
11225 1
11226 1
11227 800
11228 800
11229 800
11230 500
11231 500
11232 250
11233 500
11234 500
11235 120002
11236 120002
11237 500
11238 50
11239 50
11240 50
11241 50
11242 50
11243 50
11244 50
11245 50
11246 50
11247 50
11248 50
11249 50
11250 50
11251 50
11252 50
11253 50
11254 50
11255 50
11256 50
11257 50
11258 600
11259 1000
11260 1
11261 1
11262 50
11263 50
11264 10
11265 10
11266 5
11267 1
11268 1000
11269 1
11270 1
11271 50
11272 50
11273 3
11274 75
11275 48
11276 1
11277 200
11278 80
11279 1
11280 200
11281 200
11282 80
11283 2000000
11284 2000000
11285 2000000
11286 750000
11287 750000
11288 40
11289 40
11290 40
11291 40
11292 40
11293 40
11294 40
11295 40
11296 40
11297 40
11298 40
11299 40
11300 40
11301 40
11302 40
11303 40
11304 40
11305 40
11306 1
11307 1
11308 1
11309 1
11310 1
11311 1
11312 1
11313 1
11314 1
11315 1
11316 1
11317 1
11318 1
11319 1
11320 3
11321 3
11322 3
11323 1
11324 20
11325 20
11326 50
11327 50
11328 25
11329 25
11330 50
11331 50
11332 75
11333 75
11334 1
11335 150000
11336 150000
11337 1000
11338 3500
11339 0
11340 0
11341 0
11342 0
11343 0
11344 0
11345 0
11346 0
11347 0
11348 0
11349 0
11350 0
11351 0
11352 0
11353 0
11354 0
11355 0
11356 0
11357 0
11358 0
11359 0
11360 0
11361 0
11362 0
11363 0
11364 0
11365 0
11366 0
11367 26
11368 26
11369 91
11370 91
11371 325
11372 325
11373 845
11374 845
11375 2080
11376 2080
11377 20800
11378 20800
11379 26
11380 26
11381 26
11382 26
11383 26
11384 26
11385 26
11386 91
11387 91
11388 91
11389 91
11390 91
11391 91
11392 91
11393 325
11394 325
11395 325
11396 325
11397 325
11398 325
11399 325
11400 845
11401 845
11402 845
11403 845
11404 845
11405 845
11406 845
11407 2080
11408 2080
11409 2080
11410 2080
11411 2080
11412 2080
11413 2080
11414 20800
11415 20800
11416 20800
11417 20800
11418 20800
11419 20800
11420 20800
11421 1
11422 1
11423 1
11424 1
11425 1
11426 1
11427 3
11428 3
11429 9
11430 9
11431 6
11432 6
11433 216
11434 216
11435 144
11436 144
11437 150
11438 150
11439 75
11440 75
11441 11
11442 11
11443 13
11444 13
11445 105
11446 105
11447 52
11448 52
11449 66
11450 66
11451 44
11452 44
11453 72
11454 72
11455 36
11456 36
11457 90
11458 90
11459 60
11460 60
11461 100
11462 100
11463 50
11464 50
11465 114
11466 114
11467 76
11468 76
11469 135
11470 135
11471 90
11472 90
11473 216
11474 216
11475 144
11476 144
11477 150
11478 150
11479 100
11480 100
11481 160
11482 160
11483 90
11484 90
11485 165
11486 165
11487 110
11488 110
11489 180
11490 180
11491 130
11492 130
11493 180
11494 180
11495 120
11496 120
11497 198
11498 198
11499 132
11500 132
11501 216
11502 216
11503 144
11504 144
11505 198
11506 198
11507 132
11508 132
11509 216
11510 216
11511 144
11512 144
11513 200
11514 200
11515 150
11516 150
11517 9
11518 9
11519 6
11520 6
11521 150
11522 150
11523 125
11524 125
11525 2
11526 3
11527 3
11528 3
11529 3
11530 3
11531 3
11532 3
11533 3
11534 3
11535 3
11536 3
11537 3
11538 3
11539 3
11540 3
11541 3
11542 3
11543 3
11544 3
11545 3
11546 3
11547 3
11548 3
11549 3
11550 3
11551 3
11552 3
11553 3
11554 3
11555 3
11556 3
11557 3
11558 3
11559 3
11560 3
11561 3
11562 3
11563 3
11564 3
11565 3
11566 3
11567 3
11568 3
11569 3
11570 3
11571 3
11572 3
11573 3
11574 3
11575 3
11576 3
11577 3
11578 3
11579 3
11580 3
11581 3
11582 3
11583 3
11584 3
11585 3
11586 3
11587 3
11588 3
11589 3
11590 3
11591 3
11592 3
11593 3
11594 3
11595 3
11596 3
11597 3
11598 3
11599 3
11600 3
11601 3
11602 3
11603 3
11604 3
11605 3
11606 3
11607 3
11608 3
11609 3
11610 3
11611 3
11612 3
11613 3
11614 3
11615 3
11616 3
11617 3
11618 3
11619 3
11620 3
11621 3
11622 3
11623 3
11624 3
11625 3
11626 3
11627 3
11628 3
11629 3
11630 3
11631 3
11632 3
11633 3
11634 3
11635 3
11636 3
11637 3
11638 3
11639 3
11640 1
11641 3
11642 3
11643 3
11644 3
11645 3
11646 3
11647 3
11648 3
11649 3
11650 3
11651 3
11652 3
11653 3
11654 3
11655 3
11656 3
11657 3
11658 1
11659 1
11660 1
11661 1
11662 1
11663 9851
11664 9851
11665 9851
11666 100
11667 100
11668 100
11669 100
11670 100
11671 100
11672 100
11673 100
11674 9851
11675 9851
11676 9851
11677 6
11678 1
11679 1
11680 1
11681 1
11682 1
11683 1
11684 1
11685 1
11686 500000
11687 500000
11688 500000
11689 500000
11690 750000
11691 750000
11692 500000
11693 500000
11694 1250000
11695 1250000
11696 1250000
11697 1250000
11698 1250000
11699 1250000
11700 1250000
11701 1250000
11702 500000
11703 500000
11704 500000
11705 500000
11706 500000
11707 500000
11708 500000
11709 500000
11710 250000
11711 250000
11712 250000
11713 250000
11714 250000
11715 250000
11716 100000
11717 100000
11718 20000
11719 20000
11720 60000
11721 60000
11722 50000
11723 50000
11724 265000
11725 265000
11726 272500
11727 272500
11728 25000
11729 25000
11730 130000
11731 130000
11732 20000
11733 20000
11734 0
11735 0
11736 17000
11737 17000
11738 45000
11739 45000
11740 1
11741 1
11742 1
11743 1
11744 1
11745 1
11746 1
11747 1
11748 1
11749 10
11750 1
11751 1
11752 1
11753 1
11754 1
11755 1
11756 0
11757 0
11758 0
11759 1
11760 1
11761 1
11762 1
11763 1
11764 1
11765 1
11766 1
11767 1
11768 1
11769 1
11770 1
11771 1
11772 1
11773 1
11774 1
11775 1
11776 1
11777 1
11778 1
11779 1
11780 1
11781 5
11782 1
11783 1
11784 1
11785 1
11786 1
11787 1
11788 1
11789 1
11790 1
11791 1
11792 1
11793 1
11794 1
11795 1
11796 1
11797 1
11798 1
11799 1
11800 1
11801 1
11802 1
11803 1
11804 1
11805 1
11806 1
11807 1
11808 1
11809 1
11810 1
11811 1
11812 1
11813 1
11814 1
11815 1
11816 1
11817 1
11818 1
11819 1
11820 1
11821 1
11822 1
11823 1
11824 1
11825 1
11826 1
11827 1
11828 1
11829 1
11830 1
11831 1
11832 1
11833 1
11834 1
11835 1
11836 1
11837 1
11838 1
11839 1
11840 1
11841 1
11842 1
11843 1
11844 1
11845 1
11846 1
11847 1
11848 1
11849 1
11850 1
11851 1
11852 1
11853 1
11854 1
11855 1
11856 1
11857 1
11858 1
11859 1
11860 1
11861 1
11862 1
11863 1
11864 1
11865 1
11866 1
11867 1
11868 1
11869 1
11870 1
11871 1
11872 1
11873 1
11874 1
11875 1
11876 1
11877 1
11878 1
11879 1
11880 1
11881 1
11882 1
11883 1
11884 1
11885 1
11886 1
11887 1
11888 1
11889 1
11890 1
11891 1
11892 1
11893 1
11894 1
11895 1
11896 1
11897 1
11898 1
11899 1
11900 1
11901 1
11902 1
11903 1
11904 1
11905 1
11906 1
11907 1
11908 1
11909 1
11910 1
11911 1
11912 1
11913 1
11914 1
11915 1
11916 1
11917 1
11918 1
11919 1
11920 1
11921 1
11922 1
11923 1
11924 1
11925 1
11926 1
11927 1
11928 1
11929 1
11930 1
11931 1
11932 1
11933 1
11934 1
11935 1
11936 1
11937 1
11938 1
11939 1
11940 1
11941 1
11942 1
11943 1
11944 1
11945 1
11946 1
11947 1
11948 1
11949 1
11950 1
11951 1
11952 1
11953 1
11954 1
11955 1
11956 1
11957 1
11958 1
11959 1
11960 1
11961 1
11962 1
11963 1
11964 1
11965 1
11966 1
11967 1
11968 1
11969 1
11970 1
11971 1
11972 1
11973 1
11974 1
11975 1
11976 1
11977 1
11978 1
11979 1
11980 1
11981 1
11982 1
11983 1
11984 1
11985 1
11986 1
11987 1
11988 1
11989 1
11990 1
11991 1
11992 1
11993 1
11994 1
11995 1
11996 1
11997 1
11998 1
11999 1
