
127.0.0.1
127.0.0.1
99.17.243.60
99.17.243.60
70.54.90.68
70.54.90.68
121.215.136.19
121.215.136.19
85.228.53.148
85.228.53.148
90.205.29.191
90.205.29.191
74.135.51.167
74.135.51.167
31.215.47.89
31.215.47.89
31.48.42.177
31.48.42.177
99.149.22.82
99.149.22.82
82.16.74.60
82.16.74.60
82.6.30.101
82.6.30.101
83.249.70.93
83.249.70.93
86.182.147.183
86.182.147.183
172.56.11.110
172.56.11.110
2.99.65.95
2.99.65.95
173.29.4.22
173.29.4.22
173.18.145.62
173.18.145.62
122.58.243.203
122.58.243.203
73.24.153.51
73.24.153.51
68.235.234.57
68.235.234.57
173.88.172.141
173.88.172.141
209.195.71.239
209.195.71.239
90.217.154.193
90.217.154.193
94.210.166.145
94.210.166.145
73.212.70.98
73.212.70.98
73.34.234.167
73.34.234.167
71.62.104.248
71.62.104.248
107.185.80.41
107.185.80.41
83.83.44.220
83.83.44.220
216.72.43.2
216.72.43.2
173.33.29.230
173.33.29.230
90.191.176.41
90.191.176.41